{
    "antifeatures": {
        "Ads": "Tato aplikace obsahuje reklamu",
        "DisabledAlgorithm": "Tato aplikace má slabý bezpečnostní podpis",
        "KnownVuln": "Tato aplikace má známou zranitelnost v zabezpečení",
        "NSFW": "Tato aplikace zahrnuje obsah, který by neměl být všude zveřejněný nebo viditelný",
        "NoSourceSince": "Zdrojový kód už není k dispozici, aktualizace nejsou možné",
        "NonFreeAdd": "Tato aplikace propaguje nesvobodné doplňky",
        "NonFreeAssets": "Tato aplikace obsahuje nesvobodné části",
        "NonFreeDep": "Tato aplikace závisí na ostatních nesvobodných aplikacích",
        "NonFreeNet": "Tato aplikace propaguje nesvobodné síťové služby nebo na nich zcela závisí",
        "Tracking": "Tato aplikace zaznamenává a hlásí vaše aktivity",
        "UpstreamNonFree": "Originální zdrojový kód je částečně nesvovodný"
    },
    "app_categories": {
        "Connectivity": "Spojení",
        "Development": "Vývoj",
        "Games": "Hry",
        "Graphics": "Grafika",
        "Internet": "Internet",
        "Money": "Peníze",
        "Multimedia": "Multimédia",
        "Navigation": "Navigace",
        "Phone & SMS": "Telefon a SMS",
        "Reading": "Čtení",
        "Science & Education": "Věda a vzdělání",
        "Security": "Zabezpečení",
        "Sports & Health": "Sport a zdraví",
        "System": "Systém",
        "Theming": "Vzhled",
        "Time": "Čas",
        "Writing": "Psaní",
        "show_all_packages": "Zobrazit všech %d balíčků"
    },
    "index": {
        "download_fdroid": "Stáhnout F-Droid",
        "gpg_signature": "Podpis PGP",
        "introduction": "F-Droid je instalovatelný katalog svobodných a opensource aplikací pro platformu Android. Klient usnadňuje procházení, instalaci a aktualizaci na vašem zařízení.",
        "pgp_verification_instructions": "Pokyny k ověření staženého souboru",
        "screenshot": "Snímek obrazovky F-Droid Android aplikace",
        "title": "Co je F-Droid?"
    },
    "mirrors": {
        "cn": "Pevninská Čína",
        "de": "Německo",
        "indiana": "Indiana, USA",
        "se": "Švédsko",
        "tw": "Tchaj-wan",
        "ua": "Ukrajina"
    },
    "navigation": {
        "about": "O aplikaci",
        "apps": "Aplikace",
        "contribute": "Přispějte",
        "documentation": "Dokumentace",
        "edit_on_gitlab": "Editovat na GitLab",
        "forum": "Fórum",
        "issues": "Problémy",
        "news": "Novinky",
        "statuspage": "Stav",
        "translate_on_weblate": "Přeložit na Weblate"
    },
    "news": {
        "newer_posts": "← Novější příspěvky",
        "older_posts": "Starší příspěvky →",
        "posted_on": "Zveřejněno {{ post_date }}"
    },
    "package": {
        "added_on": "Přidáno dne {{ package_added_date }}",
        "anti_features": "Anti-Vlastnosti",
        "anti_features_warning": "Tato aplikace má funkce, které se vám nemusí líbit.",
        "author": "Autor",
        "build_log": "Záznam sestavení",
        "build_metadata": "Metadata sestavení",
        "changelog": "Seznam změn",
        "donate": "Přispět",
        "download": "Stáhnout {{ file_extension }} soubor",
        "flattr": "Flattr",
        "gpg_signature": "Podpis PGP",
        "issue_tracker": "Systém sledování problémů",
        "liberapay": "Liberapay",
        "license": "Licence",
        "minimum_android_version": "Tato verze vyžaduje alespoň Android {{ android_version }} nebo novější.",
        "new_in_version": "Novinky ve verzi {{ latest_version }}",
        "opencollective": "Open Collective",
        "package_icon_alt": "ikona balíčku",
        "package_screenshot_alt": "snímek aplikace",
        "packages": "Balíčky",
        "permissions": "Oprávnění",
        "signed_by_developer": "Je sestavená a podepsaná původním vývojářem a je zaručeno, že odpovídá <a href=\"{{ source_code_url }}\">tomuto zdrojovému tarballu</a>.",
        "signed_by_fdroid": "Je sestavená a podepsaná systémem F-Droid a je zaručeno, že odpovídá <a href=\"{{ source_code_url }}\">tomuto archivu se zdrojovými kódy</a>.",
        "source_code": "Zdrojový kód",
        "suggest_downloading_via_fdroid": "Ačkoli jsou jako možnost níže k dispozici i přímá stahování APK balíčků, měli byste vědět, že instalace tímto způsobem neobdrží oznámení o aktualizacích a je méně bezpečným způsobem stažení. Doporučujeme nainstalovat F-Droid klienta a použít ten.",
        "suggested": "doporučené",
        "translation": "Překlad",
        "version_info": "<b>Verze {{ package_version }}</b> ({{ package_version_code }})",
        "versions": "Verze",
        "website": "Webová stránka"
    },
    "permissions": {
        "permdesc_acceptHandovers": "Umožňuje aplikace pokračovat v hovoru, který byl zahájen v jiné aplikaci.",
        "permdesc_accessBackgroundLocation": "Tato aplikace má kdykoliv přístup k poloze (i když ji zrovna nepoužíváte).",
        "permdesc_accessCoarseLocation": "Když tuto aplikaci používáte, může pomocí služeb určování polohy získat vaši přibližnou polohu. Aby ji mohla zjistit, musí být na zařízení zapnuté služby určování polohy.",
        "permdesc_accessDrmCertificates": "Umožňuje aplikaci vydávat a používat certifikáty DRM. Běžné aplikace by toto oprávnění neměly nikdy potřebovat.",
        "permdesc_accessFineLocation": "Když tuto aplikaci používáte, může pomocí služeb určování polohy získat vaši přesnou polohu. Aby ji mohla zjistit, musí být na zařízení zapnuté služby určování polohy. Tato funkce může vést k rychlejšímu vybíjení baterie.",
        "permdesc_accessImsCallService": "Umožňuje aplikaci používat službu zasílání rychlých zpráv k uskutečňování hovorů bez vašeho zásahu.",
        "permdesc_accessLocationExtraCommands": "Umožňuje aplikaci přístup k dalším příkazům poskytovatele polohy. To aplikaci umožní zasahovat do fungování systému GPS a dalších zdrojů polohy.",
        "permdesc_accessNetworkConditions": "Umožňuje aplikaci naslouchat informacím o stavu sítě. Běžné aplikace by toto oprávnění neměly nikdy potřebovat.",
        "permdesc_accessNetworkState": "Umožňuje aplikaci zobrazit informace o síťových připojeních, například o tom, které sítě jsou k dispozici a které jsou připojené.",
        "permdesc_accessNotifications": "Umožňuje aplikacím načítat, zobrazovat a mazat oznámení včetně těch přidaných jinými aplikacemi.",
        "permdesc_accessWifiState": "Umožňuje aplikaci zobrazit informace o sítích Wi-fi, například o tom, zda je povoleno připojení Wi-Fi, nebo název připojených zařízení Wi-Fi.",
        "permdesc_accessWimaxState": "Umožňuje aplikaci zjistit, zda je povoleno připojení WiMAX, a také získat informace o všech připojených sítích WiMAX.",
        "permdesc_access_notification_policy": "Umožňuje aplikaci číst a zapisovat konfiguraci režimu Nerušit.",
        "permdesc_activityRecognition": "Tato aplikace dokáže rozpoznat vaši fyzickou aktivitu.",
        "permdesc_addVoicemail": "Umožňuje aplikaci přidávat zprávy do hlasové schránky.",
        "permdesc_answerPhoneCalls": "Umožňuje aplikaci odpovídat na příchozí telefonické hovory.",
        "permdesc_audioWrite": "Umožňuje aplikaci upravit vaši hudební sbírku.",
        "permdesc_backgroundCamera": "Tato aplikace může pomocí fotoaparátu kdykoli pořídit snímek nebo nahrát video.",
        "permdesc_bindCarrierMessagingService": "Umožňuje držiteli navázat se na nejvyšší úroveň rozhraní služby zasílání zpráv prostřednictvím operátora. Běžné aplikace by toto oprávnění neměly nikdy potřebovat.",
        "permdesc_bindCarrierServices": "Umožňuje držiteli oprávnění navázat se na služby operátora. Běžné aplikace by toto oprávnění neměly nikdy požadovat.",
        "permdesc_bindCellBroadcastService": "Umožňuje aplikaci vytvořit vazbu s modulem informačních služeb za účelem přesměrovávání přijatých zpráv informačních služeb. Výstražná upozornění informačních služeb jsou v některých oblastech odesílána za účelem varování před výjimečnými událostmi. Škodlivé aplikace mohou narušit výkon či provoz vašeho zařízení během přijímání zpráv informačních služeb.",
        "permdesc_bindConditionProviderService": "Umožňuje držiteli navázat se na nejvyšší úroveň rozhraní služby poskytovatele podmínky. Běžné aplikace by toto oprávnění neměly nikdy potřebovat.",
        "permdesc_bindDreamService": "Umožňuje navázání na nejvyšší úroveň služby spořiče. Běžné aplikace by toto oprávnění neměly nikdy potřebovat.",
        "permdesc_bindNotificationListenerService": "Umožňuje držiteli navázat se na nejvyšší úroveň služby pro poslouchání oznámení. Běžné aplikace by toto oprávnění neměly nikdy požadovat.",
        "permdesc_bind_connection_service": "Umožňuje aplikaci komunikovat s telefonními službami a provádět/přijímat hovory.",
        "permdesc_bind_incall_service": "Umožňuje aplikaci řídit, kdy a jak se uživateli zobrazí obrazovka příchozího hovoru.",
        "permdesc_bluetooth": "Umožňuje aplikaci zobrazit konfiguraci telefonu s rozhraním Bluetooth, vytvářet připojení ke spárovaným zařízením a přijímat tato připojení.",
        "permdesc_bluetoothAdmin": "Umožňuje aplikaci konfigurovat místní telefon s rozhraním Bluetooth a vyhledávat a párovat vzdálená zařízení.",
        "permdesc_bluetooth_advertise": "Umožňuje aplikaci inzerovat zařízením Bluetooth v okolí",
        "permdesc_bluetooth_connect": "Umožňuje aplikaci připojovat se ke spárovaným zařízením Bluetooth",
        "permdesc_bluetooth_scan": "Umožňuje aplikaci vyhledávat zařízení Bluetooth v okolí a spárovávat se s nimi",
        "permdesc_bodySensors": "Umožňuje aplikaci používat data ze senzorů, které sledují vaši fyzickou kondici, například tepovou frekvenci.",
        "permdesc_bodySensors_background": "Umožňuje aplikaci přistupovat k údajům z tělesných senzorů, jako je srdeční tep, teplota a procento kyslíku v krvi, i když je aplikace na pozadí.",
        "permdesc_broadcastSticky": "Umožňuje aplikaci odesílat trvalá vysílání, která přetrvávají i po skončení vysílání. Nadměrné používání může telefon zpomalit či způsobit jeho nestabilitu, protože bude používat příliš mnoho paměti.",
        "permdesc_callCompanionApp": "Umožňuje aplikaci zobrazit a ovládat probíhající hovory v zařízení. Zahrnuje to informace jako zúčastněna čísla a stav hovoru.",
        "permdesc_callPhone": "Umožňuje aplikaci volat na telefonní čísla bez vašeho přičinění. Může mít za následek neočekávané poplatky nebo hovory. Toto oprávnění neumožňuje aplikaci volat na tísňová čísla. Škodlivé aplikace vás mohou připravit o peníze uskutečňováním hovorů bez vašeho svolení.",
        "permdesc_camera": "Tato aplikace může pomocí fotoaparátu během svého používání pořídit snímek nebo nahrát video.",
        "permdesc_cameraOpenCloseListener": "Tato aplikace může přijímat zpětná volání při otevírání nebo zavírání libovolného fotoaparátu (s informacemi o tom, která aplikace tuto akci provádí).",
        "permdesc_changeNetworkState": "Umožňuje aplikaci změnit stav připojení k síti.",
        "permdesc_changeTetherState": "Umožňuje aplikaci změnit stav sdíleného datového připojení k síti.",
        "permdesc_changeWifiMulticastState": "Umožňuje aplikaci přijímat pakety odeslané do všech zařízení v síti Wi-Fi nejen pomocí telefonu, ale i prostřednictvím adres vícesměrového vysílání. Spotřeba energie je vyšší než u režimu bez vícesměrového vysílání (multicast).",
        "permdesc_changeWifiState": "Umožňuje aplikaci připojit se k přístupovým bodům Wi-Fi či se od nich odpojit a provádět změny konfigurace zařízení pro sítě Wi-Fi.",
        "permdesc_changeWimaxState": "Umožňuje aplikaci připojovat telefon k sítím WiMAX a odpojovat jej od nich.",
        "permdesc_companionProfileWatch": "Umožňuje doprovodné aplikaci spravovat hodinky.",
        "permdesc_connection_manager": "Umožňuje aplikaci spravovat telekomunikační připojení.",
        "permdesc_control_incall_experience": "Umožňuje aplikaci zobrazit uživatelské prostředí během hovoru.",
        "permdesc_createNetworkSockets": "Umožňuje aplikaci vytvářet síťové sokety a používat vlastní síťové protokoly. K odesílání údajů na internet toto oprávnění není nutné, protože údaje lze na internet odesílat prostřednictvím prohlížečů a dalších aplikací.",
        "permdesc_deliverCompanionMessages": "Umožňuje doprovodné aplikaci doručovat doprovodné zprávy do jiných zařízení.",
        "permdesc_detectScreenCapture": "Tato aplikace dostane oznámení v případě pořízení snímku obrazovky během používání aplikace.",
        "permdesc_disableKeyguard": "Umožňuje aplikaci vypnout zámek kláves a související zabezpečení heslem. Telefon například vypne zámek klávesnice při příchozím hovoru a po skončení hovoru jej zase zapne.",
        "permdesc_enableCarMode": "Umožňuje aplikaci aktivovat režim V autě.",
        "permdesc_exemptFromAudioRecordRestrictions": "Udělit aplikaci výjimku z omezení nahrávání zvuku.",
        "permdesc_expandStatusBar": "Umožňuje aplikaci rozbalit či sbalit stavový řádek.",
        "permdesc_foregroundService": "Povolte aplikaci využívání služeb na popředí.",
        "permdesc_foregroundServiceCamera": "Umožňuje aplikaci používat služby v popředí typu „camera“",
        "permdesc_foregroundServiceConnectedDevice": "Umožňuje aplikaci používat služby v popředí typu „connectedDevice“",
        "permdesc_foregroundServiceDataSync": "Umožňuje aplikaci používat služby v popředí typu „dataSync“",
        "permdesc_foregroundServiceFileManagement": "Umožňuje aplikaci používat služby v popředí typu „fileManagement“",
        "permdesc_foregroundServiceHealth": "Umožňuje aplikaci používat služby v popředí typu „health“",
        "permdesc_foregroundServiceLocation": "Umožňuje aplikaci používat služby v popředí typu „location“",
        "permdesc_foregroundServiceMediaPlayback": "Umožňuje aplikaci používat služby v popředí typu „mediaPlayback“",
        "permdesc_foregroundServiceMediaProjection": "Umožňuje aplikaci používat služby v popředí typu „mediaProjection“",
        "permdesc_foregroundServiceMicrophone": "Umožňuje aplikaci používat služby v popředí typu „microphone“",
        "permdesc_foregroundServicePhoneCall": "Umožňuje aplikaci používat služby v popředí typu „phoneCall“",
        "permdesc_foregroundServiceRemoteMessaging": "Umožňuje aplikaci používat služby v popředí typu „remoteMessaging“",
        "permdesc_foregroundServiceSpecialUse": "Umožňuje aplikaci používat služby v popředí typu „specialUse“",
        "permdesc_foregroundServiceSystemExempted": "Umožňuje aplikaci používat služby v popředí typu „systemExempted“",
        "permdesc_fullScreenIntent": "Umožňuje aplikaci zobrazovat oznámení na celé obrazovce zamčeného zařízení",
        "permdesc_getAccounts": "Umožňuje aplikaci získat seznam účtů v telefonu. Mohou sem patřit i účty vytvořené aplikacemi, které jste nainstalovali.",
        "permdesc_getPackageSize": "Umožňuje aplikaci načtení svého kódu, dat a velikostí mezipaměti",
        "permdesc_getTasks": "Umožňuje aplikaci získat informace o aktuálně a naposledy spuštěných úlohách. Aplikace s tímto oprávněním může odhalit informace o aplikacích, které se v zařízení používají.",
        "permdesc_handoverStatus": "Umožňuje této aplikaci přijímat informace o aktuálních přenosech pomocí technologie Android Beam",
        "permdesc_hideOverlayWindows": "Tato aplikace může systém požádat, aby nad ní nezobrazoval překryvné vrstvy z jiných aplikací.",
        "permdesc_highSamplingRateSensors": "Umožňuje aplikaci vzorkovat data ze senzorů s frekvencí vyšší než 200 Hz",
        "permdesc_imagesWrite": "Umožňuje aplikaci upravit vaši sbírku fotek.",
        "permdesc_install_shortcut": "Umožňuje aplikaci přidat zástupce na plochu bez zásahu uživatele.",
        "permdesc_invokeCarrierSetup": "Umožňuje vyvolání konfigurační aplikace poskytnuté operátorem. Běžné aplikace by toto oprávnění neměly nikdy požadovat.",
        "permdesc_killBackgroundProcesses": "Umožňuje aplikaci ukončit procesy na pozadí ostatních aplikací. Mohlo by dojít k zastavení ostatních aplikací.",
        "permdesc_manageFace": "Umožňuje aplikaci volat metody k přidání a smazání šablon obličeje, které budou použity.",
        "permdesc_manageFingerprint": "Umožňuje aplikaci volat metody k přidání a smazání šablon otisků prstů, které budou použity.",
        "permdesc_manageNetworkPolicy": "Umožňuje aplikaci spravovat zásady sítě a definovat pravidla pro konkrétní aplikace.",
        "permdesc_manageOngoingCalls": "Umožňuje aplikaci zobrazit podrobnosti o probíhajících hovorech v zařízení a tyto hovory ovládat.",
        "permdesc_manageOwnCalls": "Umožňuje aplikaci směrovat volání prostřednictvím systému za účelem vylepšení funkcí volání.",
        "permdesc_manageProfileAndDeviceOwners": "Umožňuje aplikacím nastavit vlastníky profilu a vlastníka zařízení.",
        "permdesc_mediaLocation": "Umožňuje aplikaci číst místa z vaší sbírky médií.",
        "permdesc_modifyAudioSettings": "Umožňuje aplikaci změnit globální nastavení zvuku, například hlasitost či reproduktor pro výstup zvuku.",
        "permdesc_modifyNetworkAccounting": "Umožňuje aplikaci upravit způsob výpočtu využití sítě aplikacemi. Toto oprávnění není určeno pro běžné aplikace.",
        "permdesc_nearby_wifi_devices": "Umožňuje aplikaci zobrazovat se, připojovat se a určovat relativní polohu okolních zařízení Wi\\u2011Fi",
        "permdesc_nfc": "Umožňuje aplikaci komunikovat se štítky, kartami a čtečkami s podporou technologie NFC.",
        "permdesc_observeCompanionDevicePresence": "Umožňuje doprovodné aplikaci sledovat přítomnost doprovodných zařízení, když jsou poblíž nebo daleko.",
        "permdesc_persistentActivity": "Umožňuje aplikaci uložit některé své části trvale do paměti. Může to omezit paměť dostupnou pro ostatní aplikace a zpomalit tak telefon.",
        "permdesc_postNotification": "Umožňuje aplikaci zobrazovat oznámení",
        "permdesc_preferredPaymentInfo": "Umožňuje aplikaci získat informace o preferované platební službě NFC, například o registrovaných pomůckách a cíli směrování.",
        "permdesc_processOutgoingCalls": "Umožňuje aplikaci sledovat při odchozích hovorech volaná čísla a přesměrovat hovor na jiné číslo nebo jej zcela zrušit.",
        "permdesc_queryAllPackages": "Umožňuje aplikaci načíst všechny nainstalované balíčky.",
        "permdesc_readBasicPhoneState": "Umožňuje aplikaci přístup k základním telefonním funkcím zařízení.",
        "permdesc_readCalendar": "Tato aplikace může číst všechny události v kalendáři uložené v telefonu a sdílet či ukládat data kalendáře.",
        "permdesc_readCallLog": "Tato aplikace může číst historii volání.",
        "permdesc_readCellBroadcasts": "Umožňuje aplikaci číst zprávy informačních služeb přijaté ve vašem zařízení. Výstražná upozornění informačních služeb jsou v některých oblastech odesílána za účelem varování před výjimečnými událostmi. Škodlivé aplikace mohou narušit výkon či provoz vašeho zařízení během přijímání zpráv informačních služeb.",
        "permdesc_readContacts": "Umožňuje aplikaci číst údaje o kontaktech uložené v telefonu. Aplikace také budou mít přístup k účtům v telefonu, pomocí kterých byly vytvořeny kontakty. Může se jednat i o účty vytvořené aplikacemi, které jste nainstalovali. Toto oprávnění aplikacím umožňuje ukládat údaje o kontaktech. Škodlivé aplikace mohou tyto údaje bez vašeho vědomí sdílet.",
        "permdesc_readHistoryBookmarks": "Umožňuje aplikaci číst historii všech adres URL navštívených v Prohlížeči a všechny záložky v Prohlížeči. Poznámka: Pro prohlížeče třetí strany a jiné aplikace umožňující procházení webu toto oprávnění platit nemusí.",
        "permdesc_readInstallSessions": "Povoluje aplikaci číst instalační relace. Díky tomu můžete zobrazit podrobnosti o aktivních instalacích balíčku.",
        "permdesc_readMediaAudio": "Umožňuje aplikaci číst zvukové soubory ze sdíleného úložiště.",
        "permdesc_readMediaImages": "Umožňuje aplikaci číst obrazové soubory ze sdíleného úložiště.",
        "permdesc_readMediaVideo": "Umožňuje aplikaci číst video soubory ze sdíleného úložiště.",
        "permdesc_readNetworkUsageHistory": "Umožňuje aplikaci číst historii využití sítě (u určitých sítí a aplikací).",
        "permdesc_readPhoneNumbers": "Umožňuje aplikaci přístup k telefonním číslům v zařízení.",
        "permdesc_readPhoneState": "Umožňuje aplikaci získat přístup k telefonním funkcím zařízení. Toto oprávnění umožňuje aplikaci zjistit telefonní číslo telefonu, identifikační čísla zařízení, zda zrovna probíhá hovor, a vzdálené číslo, ke kterému je hovor připojen.",
        "permdesc_readSms": "Tato aplikace může číst všechny SMS (textové zprávy) uložené v telefonu.",
        "permdesc_readSyncSettings": "Umožňuje aplikaci číst nastavení synchronizace v účtu. Může například určit, zda je s účtem synchronizována aplikace Lidé.",
        "permdesc_readSyncStats": "Umožňuje aplikaci číst statistické informace o synchronizaci v účtu, včetně historie uskutečněných synchronizací a informací o množství synchronizovaných dat.",
        "permdesc_readVisualUserSelect": "Umožňuje aplikaci číst vybrané obrázkové soubory a soubory videa ze sdíleného úložiště.",
        "permdesc_receiveBootCompleted": "Umožňuje aplikaci spuštění ihned po spuštění systému. Toto oprávnění může zpomalit spuštění telefonu a umožnit aplikaci celkově zpomalit telefon, protože bude neustále spuštěna.",
        "permdesc_receiveMms": "Umožňuje aplikaci přijmout a zpracovat zprávy MMS. Znamená to, že aplikace může sledovat zprávy odeslané do vašeho zařízení nebo je smazat, aniž by se vám zobrazily.",
        "permdesc_receiveSms": "Umožňuje aplikaci přijmout a zpracovat zprávy SMS. Znamená to, že aplikace může sledovat zprávy odeslané do vašeho zařízení nebo je smazat, aniž by se vám zobrazily.",
        "permdesc_receiveWapPush": "Umožňuje aplikaci přijmout a zpracovat zprávy WAP. Toto oprávnění umožňuje sledovat přijaté zprávy nebo je smazat, aniž by se vám zobrazily.",
        "permdesc_recordAudio": "Tato aplikace může pomocí mikrofonu během svého používání zaznamenat zvuk.",
        "permdesc_recordBackgroundAudio": "Tato aplikace může pomocí mikrofonu kdykoli zaznamenat zvuk.",
        "permdesc_register_call_provider": "Umožňuje aplikaci registrovat nová telekomunikační připojení.",
        "permdesc_register_sim_subscription": "Umožňuje aplikaci registrovat nová telekomunikační připojení přes SIM kartu.",
        "permdesc_removeDrmCertificates": "Povoluje aplikaci odstranit certifikáty DRM. Běžné aplikace by toto oprávnění neměly nikdy potřebovat.",
        "permdesc_reorderTasks": "Umožňuje aplikaci přesunout úlohy na popředí nebo pozadí. Aplikace tak může činit bez vašeho zásahu.",
        "permdesc_requestDeletePackages": "Umožňuje aplikaci požádat o smazání balíčků.",
        "permdesc_requestIgnoreBatteryOptimizations": "Povoluje aplikaci požádat o oprávnění ignorovat optimalizaci využití baterie, která pro ni je nastavena.",
        "permdesc_requestInstallPackages": "Umožňuje aplikaci požádat o instalaci balíčků.",
        "permdesc_requestPasswordComplexity": "Umožňuje aplikaci zjistit úroveň složitosti zámku obrazovky (vysoká, střední, nízká nebo žádná), která ukazuje možnou délku a typ zámku obrazovky. Aplikace také může uživatelům navrhnout, aby zámek obrazovky upravili na určitou úroveň, ale uživatelé mohou návrhy klidně ignorovat a odejít. Zámek obrazovky není uložen jako prostý text, a tak aplikace přesné heslo nezná.",
        "permdesc_route_media_output": "Umožňuje aplikaci směrovat výstup médií do dalších externích zařízení.",
        "permdesc_runInBackground": "Tato aplikace může být spuštěna na pozadí. Baterie se bude vybíjet rychleji.",
        "permdesc_schedule_exact_alarm": "Tato aplikace může naplánovat práci tak, aby proběhla v požadovaný čas v budoucnu. To také znamená, že aplikace může běžet, když zařízení aktivně nepoužíváte.",
        "permdesc_sdcardRead": "Umožňuje aplikaci čtení obsahu sdíleného úložiště.",
        "permdesc_sdcardWrite": "Umožňuje aplikaci zápis obsahu do sdíleného úložiště.",
        "permdesc_sendSms": "Umožňuje aplikaci odesílat zprávy SMS. Může to mít za následek účtování neočekávaných poplatků. Škodlivé aplikace vás mohou připravit o peníze odesíláním zpráv bez vašeho svolení.",
        "permdesc_setAlarm": "Umožňuje aplikaci nastavit budík v nainstalované aplikaci budík. Některé aplikace budík tuto funkci nemusí obsahovat.",
        "permdesc_setInputCalibration": "Umožňuje aplikaci měnit parametry kalibrace dotykové obrazovky. Běžné aplikace by toto oprávnění neměly nikdy potřebovat.",
        "permdesc_setTimeZone": "Umožňuje aplikaci změnit časové pásmo telefonu.",
        "permdesc_setWallpaper": "Umožňuje aplikaci nastavit tapetu systému.",
        "permdesc_setWallpaperHints": "Umožňuje aplikaci nastavit nápovědu pro velikost tapety systému.",
        "permdesc_sim_communication": "Umožňuje aplikaci odesílat příkazy na kartu SIM. Toto oprávnění je velmi nebezpečné.",
        "permdesc_startForegroundServicesFromBackground": "Umožňuje doprovodné aplikaci spouštět z pozadí služby v popředí.",
        "permdesc_startReviewPermissionDecisions": "Umožňuje držiteli spustit obrazovku pro kontrolu rozhodnutí o oprávněních. U běžných aplikací by nemělo být nikdy potřeba.",
        "permdesc_startViewAppFeatures": "Umožňuje držiteli začít prohlížet informace o funkcích aplikace.",
        "permdesc_startViewPermissionUsage": "Umožňuje přístup spustit využití oprávnění jiné aplikace. Běžné aplikace by toto oprávnění neměly nikdy požadovat.",
        "permdesc_statusBar": "Umožňuje aplikaci zakázat stavový řádek nebo přidat či odebrat systémové ikony.",
        "permdesc_statusBarService": "Umožňuje aplikaci být stavovým řádkem.",
        "permdesc_subscribedFeedsRead": "Umožňuje aplikaci získat podrobnosti o aktuálně synchronizovaných zdrojích.",
        "permdesc_systemAlertWindow": "Tato aplikace se může zobrazit přes ostatní aplikace a další části obrazovky. Může tak omezit použitelnost aplikací a změnit způsob jejich zobrazení.",
        "permdesc_systemCamera": "Tato privilegovaná nebo systémová aplikace může pomocí fotoaparátu kdykoli pořídit snímek nebo nahrát video. Aplikace musí zároveň mít oprávnění android.permission.CAMERA.",
        "permdesc_transmitIr": "Umožňuje aplikaci využívat infračervený vysílač telefonu.",
        "permdesc_turnScreenOn": "Umožňuje aplikaci zapnout obrazovku.",
        "permdesc_uninstall_shortcut": "Umožňuje aplikaci odebrat zástupce z plochy bez zásahu uživatele.",
        "permdesc_updatePackagesWithoutUserAction": "Umožňuje držiteli aktualizovat aplikaci, kterou dříve nainstaloval, bez zásahu uživatele",
        "permdesc_useBiometric": "Umožňuje aplikaci použít k ověření biometrický hardware",
        "permdesc_useDataInBackground": "Tato aplikace může využívat data na pozadí. Zvýší se využití dat.",
        "permdesc_useFaceAuthentication": "Umožňuje aplikaci provést ověření pomocí hardwaru k odemknutí obličejem",
        "permdesc_useFingerprint": "Umožňuje aplikaci použít k ověření hardware na čtení otisků prstů",
        "permdesc_use_exact_alarm": "Tato aplikace může naplánovat akce, jako jsou budíky a připomenutí, aby vás upozornila v požadovanou chvíli v budoucnu.",
        "permdesc_use_sip": "Povolí aplikaci uskutečňovat a přijímat volání SIP.",
        "permdesc_uwb_ranging": "Aplikace bude moci zjišťovat vzájemnou pozici mezi ultra-širokopásmovými zařízeními v okolí",
        "permdesc_vibrate": "Umožňuje aplikaci ovládat vibrace.",
        "permdesc_vibrator_state": "Umožňuje aplikaci přístup ke stavu vibrací.",
        "permdesc_videoWrite": "Umožňuje aplikaci upravit vaši sbírku videí.",
        "permdesc_wakeLock": "Umožňuje aplikaci zabránit přechodu telefonu do režimu spánku.",
        "permdesc_writeCalendar": "Tato aplikace může přidat, odstranit či změnit události v kalendáři uložené v telefonu. Může také odesílat zprávy, které budou zdánlivě přicházet od vlastníka kalendáře, nebo upravovat události bez vědomí vlastníka.",
        "permdesc_writeCallLog": "Umožňuje aplikaci upravovat seznam hovorů vašeho telefonu, včetně dat o příchozích a odchozích hovorech. Škodlivé aplikace to mohou zneužít k vymazání nebo změnám seznamu hovorů.",
        "permdesc_writeContacts": "Umožňuje aplikaci upravovat údaje o kontaktech uložení v telefonu. Toto oprávnění aplikacím umožňuje mazat údaje o kontaktech.",
        "permdesc_writeGeolocationPermissions": "Umožňuje aplikaci upravit oprávnění funkce geolokace v prohlížeči. Škodlivé aplikace toho mohou využít k odeslání údajů o poloze na libovolné webové stránky.",
        "permdesc_writeHistoryBookmarks": "Umožňuje aplikaci upravit historii prohlížeče nebo záložky uložené v telefonu. Aplikace s tímto oprávněním může vymazat či pozměnit data prohlížeče. Poznámka: Pro prohlížeče třetí strany a jiné aplikace umožňující procházení webu toto oprávnění platit nemusí.",
        "permdesc_writeSettings": "Umožňuje aplikaci upravit data nastavení systému. Škodlivé aplikace mohou poškodit konfiguraci systému.",
        "permdesc_writeSyncSettings": "Umožňuje aplikaci změnit nastavení synchronizace v účtu. Pomocí tohoto oprávnění lze například zapnout synchronizaci aplikace Lidé s účtem.",
        "permgroupbackgroundrequest_location": "Umožňuje applikaci vyžádat si polohu na pozadí.",
        "permgroupbackgroundrequestdetail_location": "Aplikace má přístup k poloze pouze když ji používáte",
        "permgroupdesc_activityRecognition": "přístup k vaší fyzické aktivitě",
        "permgroupdesc_calendar": "přístup ke kalendáři",
        "permgroupdesc_calllog": "čtení a zápis do seznamu telefonních hovorů",
        "permgroupdesc_camera": "pořizování fotografií a nahrávání videa",
        "permgroupdesc_contacts": "přístup ke kontaktům",
        "permgroupdesc_location": "přístup k poloze tohoto zařízení",
        "permgroupdesc_microphone": "nahrávání zvuku",
        "permgroupdesc_nearby_devices": "objevování a připojení k zařízením v okolí",
        "permgroupdesc_notifications": "zobrazování oznámení",
        "permgroupdesc_phone": "uskutečňování a spravování telefonních hovorů",
        "permgroupdesc_readMediaAural": "přístup k hudbě a zvuku v zařízení",
        "permgroupdesc_readMediaVisual": "přístup k fotkám a videím v zařízení",
        "permgroupdesc_sensors": "přístup k datům ze snímačů vašich životních funkcí",
        "permgroupdesc_sms": "odesílání a zobrazování zpráv SMS",
        "permgroupdesc_storage": "přístup k fotkám, médiím a souborům v zařízení",
        "permgrouplab_activityRecognition": "Fyzická aktivita",
        "permgrouplab_calendar": "Kalendář",
        "permgrouplab_calllog": "Seznamy hovorů",
        "permgrouplab_camera": "Fotoaparát",
        "permgrouplab_contacts": "Kontakty",
        "permgrouplab_location": "Poloha",
        "permgrouplab_microphone": "Mikrofon",
        "permgrouplab_nearby_devices": "Zařízení v okolí",
        "permgrouplab_notifications": "Oznámení",
        "permgrouplab_phone": "Telefon",
        "permgrouplab_readMediaAural": "Hudba a zvuk",
        "permgrouplab_readMediaVisual": "Fotky a videa",
        "permgrouplab_sensors": "Tělesné senzory",
        "permgrouplab_sms": "SMS",
        "permgrouplab_storage": "Soubory",
        "permgrouprequest_activityRecognition": "Povolit aplikaci sledovat vaši aktivitu.",
        "permgrouprequest_calendar": "Povolit aplikaci <b>",
        "permgrouprequest_calllog": "Povolit aplikaci <b>",
        "permgrouprequest_camera": "Povolit aplikaci <b>",
        "permgrouprequest_contacts": "Povolit aplikaci <b>",
        "permgrouprequest_location": "Povolit aplikaci <b>",
        "permgrouprequest_microphone": "Povolit aplikaci <b>",
        "permgrouprequest_phone": "Povolit aplikaci <b>",
        "permgrouprequest_sensors": "Povolit aplikaci <b>",
        "permgrouprequest_sms": "Povolit aplikaci <b>",
        "permgrouprequest_storage": "Povolit aplikaci <b>",
        "permgrouprequestdetail_location": "Aplikace bude mít přístup k poloze pouze když ji používáte",
        "permlab_acceptHandover": "pokračování v hovoru v jiné aplikaci",
        "permlab_accessBackgroundLocation": "přístup k poloze na pozadí",
        "permlab_accessCoarseLocation": "přístup k přibližné poloze jen na popředí",
        "permlab_accessDrmCertificates": "přístup k certifikátům DRM",
        "permlab_accessFineLocation": "přístup k přesné poloze jen na popředí",
        "permlab_accessImsCallService": "přístup ke službě zasílání rychlých zpráv pro účely hovorů",
        "permlab_accessLocationExtraCommands": "přístup k dalším příkazům poskytovatele polohy",
        "permlab_accessNetworkConditions": "naslouchat informacím o stavu sítě",
        "permlab_accessNetworkState": "zobrazování síťových připojení",
        "permlab_accessNotifications": "přístup k oznámením",
        "permlab_accessWifiState": "zobrazení připojení Wi-Fi",
        "permlab_accessWimaxState": "připojení a odpojení od sítě WiMAX",
        "permlab_access_notification_policy": "přístup k režimu Nerušit",
        "permlab_activityRecognition": "rozpoznání fyzické aktivity",
        "permlab_addVoicemail": "přidat hlasovou zprávu",
        "permlab_answerPhoneCalls": "odpovídání na telefonické hovory",
        "permlab_audioWrite": "úprava hudební sbírky",
        "permlab_backgroundCamera": "pořizovat snímky a nahrávat videa na pozadí",
        "permlab_bindCarrierMessagingService": "navázat se na nejvyšší úroveň rozhraní služby zasílání zpráv prostřednictvím operátora",
        "permlab_bindCarrierServices": "navázat se na služby operátora",
        "permlab_bindCellBroadcastService": "Přesměrování zpráv informačních služeb",
        "permlab_bindConditionProviderService": "navázání na službu poskytovatele podmínky",
        "permlab_bindDreamService": "navázat se na službu spořiče",
        "permlab_bindNotificationListenerService": "navázání na službu pro poslouchání oznámení",
        "permlab_bind_connection_service": "komunikace s telefonními službami",
        "permlab_bind_incall_service": "interakce s obrazovkou příchozího hovoru",
        "permlab_bluetooth": "párování se zařízeními Bluetooth",
        "permlab_bluetoothAdmin": "přístup do nastavení Bluetooth",
        "permlab_bluetooth_advertise": "inzerovat zařízením Bluetooth v okolí",
        "permlab_bluetooth_connect": "připojovat se ke spárovaným zařízením Bluetooth",
        "permlab_bluetooth_scan": "vyhledávat a párovat zařízení Bluetooth v okolí",
        "permlab_bodySensors": "přístup k tělesným senzorům (např. snímače tepu)",
        "permlab_bodySensors_background": "Přístup k údajům z tělesných senzorů, jako je srdeční tep, při běhu na pozadí",
        "permlab_broadcastSticky": "odeslání trvalého vysílání",
        "permlab_callCompanionApp": "zobrazit a ovládat hovory v systému.",
        "permlab_callPhone": "přímé volání na telefonní čísla",
        "permlab_camera": "pořizování fotografií a videí",
        "permlab_cameraOpenCloseListener": "umožňuje aplikaci nebo službě přijímat zpětná volání o otevření nebo zavření zařízení s fotoaparátem.",
        "permlab_changeNetworkState": "změna připojení k síti",
        "permlab_changeTetherState": "změnit sdílené datové připojení",
        "permlab_changeWifiMulticastState": "povolení příjmu Wi-Fi Multicast",
        "permlab_changeWifiState": "připojení k síti Wi-Fi a odpojení od sítě Wi-Fi",
        "permlab_changeWimaxState": "měnit stav připojení WiMAX",
        "permlab_companionProfileWatch": "Oprávnění profilu doprovodného sledování ke správě sledování",
        "permlab_connection_manager": "správa telekomunikačních připojení",
        "permlab_control_incall_experience": "zobrazení uživatelského prostředí během hovoru",
        "permlab_createNetworkSockets": "úplný přístup k síti",
        "permlab_deliverCompanionMessages": "Doručování doprovodných zpráv",
        "permlab_detectScreenCapture": "zjišťování záznamu obrazovky s okny aplikace",
        "permlab_disableKeyguard": "vypnutí zámku obrazovky",
        "permlab_enableCarMode": "aktivovat režim V autě",
        "permlab_exemptFromAudioRecordRestrictions": "uděluje výjimku z omezení nahrávání zvuku",
        "permlab_expandStatusBar": "rozbalení a sbalení stavového řádku",
        "permlab_foregroundService": "spouštění služeb na popředí",
        "permlab_foregroundServiceCamera": "používat službu v popředí typu „camera“",
        "permlab_foregroundServiceConnectedDevice": "používat službu v popředí typu „connectedDevice“",
        "permlab_foregroundServiceDataSync": "používat službu v popředí typu „dataSync“",
        "permlab_foregroundServiceFileManagement": "používat službu v popředí typu „fileManagement“",
        "permlab_foregroundServiceHealth": "používat službu v popředí typu „health“",
        "permlab_foregroundServiceLocation": "používat službu v popředí typu „location“",
        "permlab_foregroundServiceMediaPlayback": "používat službu v popředí typu „mediaPlayback“",
        "permlab_foregroundServiceMediaProjection": "používat službu v popředí typu „mediaProjection“",
        "permlab_foregroundServiceMicrophone": "používat službu v popředí typu „microphone“",
        "permlab_foregroundServicePhoneCall": "používat službu v popředí typu „phoneCall“",
        "permlab_foregroundServiceRemoteMessaging": "používat službu v popředí typu „remoteMessaging“",
        "permlab_foregroundServiceSpecialUse": "používat službu v popředí typu „specialUse“",
        "permlab_foregroundServiceSystemExempted": "používat službu v popředí typu „systemExempted“",
        "permlab_fullScreenIntent": "zobrazovat oznámení na celé obrazovce zamčeného zařízení",
        "permlab_getAccounts": "vyhledávání účtů v zařízení",
        "permlab_getPackageSize": "výpočet místa pro ukládání aplikací",
        "permlab_getTasks": "načtení spuštěných aplikací",
        "permlab_handoverStatus": "příjem stavu přenosů Android Beam",
        "permlab_hideOverlayWindows": "skrýt překryvné vrstvy ostatních aplikací",
        "permlab_highSamplingRateSensors": "přístup k datům ze senzorů s vyšší vzorkovací frekvencí",
        "permlab_imagesWrite": "upravit sbírku fotek",
        "permlab_install_shortcut": "instalace zástupců",
        "permlab_invokeCarrierSetup": "vyvolat konfigurační aplikaci poskytnutou operátorem",
        "permlab_killBackgroundProcesses": "zavření ostatních aplikací",
        "permlab_manageFace": "správa hardwaru k odemknutí obličejem",
        "permlab_manageFingerprint": "správa hardwaru na čtení otisků prstů",
        "permlab_manageNetworkPolicy": "spravovat zásady sítě",
        "permlab_manageOngoingCalls": "Správa probíhajících hovorů",
        "permlab_manageOwnCalls": "směrování volání prostřednictvím systému",
        "permlab_manageProfileAndDeviceOwners": "správa vlastníků profilu a zařízení",
        "permlab_mediaLocation": "číst polohy ze sbírky médií",
        "permlab_modifyAudioSettings": "změna nastavení zvuku",
        "permlab_modifyNetworkAccounting": "upravit kontrolu používání sítě",
        "permlab_nearby_wifi_devices": "interakce se zařízeními Wi\\u2011Fi v okolí",
        "permlab_nfc": "ovládání technologie NFC",
        "permlab_observeCompanionDevicePresence": "Sledovat přítomnost doprovodných zařízení",
        "permlab_persistentActivity": "trvalé spuštění aplikace",
        "permlab_postNotification": "zobrazování oznámení",
        "permlab_preferredPaymentInfo": "Informace o preferované platební službě NFC",
        "permlab_processOutgoingCalls": "přesměrování odchozích hovorů",
        "permlab_queryAllPackages": "zjistit všechny balíčky",
        "permlab_readBasicPhoneState": "čtení základního stavu a identity telefonu",
        "permlab_readCalendar": "Čtení událostí v kalendáři včetně podrobností",
        "permlab_readCallLog": "čtení seznamu hovorů",
        "permlab_readCellBroadcasts": "čtení zpráv informačních služeb",
        "permlab_readContacts": "čtení kontaktů",
        "permlab_readHistoryBookmarks": "čtení webových záložek a historie",
        "permlab_readInstallSessions": "čtení instalačních relací",
        "permlab_readMediaAudio": "čtení zvukových souborů ze sdíleného úložiště",
        "permlab_readMediaImages": "čtení obrázkových souborů ze sdíleného úložiště",
        "permlab_readMediaVideo": "čtení video souborů ze sdíleného úložiště",
        "permlab_readNetworkUsageHistory": "číst využití sítě v historii",
        "permlab_readPhoneNumbers": "přístup k telefonním číslům",
        "permlab_readPhoneState": "čtení stavu a identity telefonu",
        "permlab_readSms": "čtení textových zpráv (SMS nebo MMS)",
        "permlab_readSyncSettings": "čtení nastavení synchronizace",
        "permlab_readSyncStats": "čtení statistických údajů o synchronizaci",
        "permlab_readVisualUserSelect": "čtení vybraných obrázkových souborů a souborů videa ze sdíleného úložiště",
        "permlab_receiveBootCompleted": "spuštění při startu",
        "permlab_receiveMms": "příjem textových zpráv (MMS)",
        "permlab_receiveSms": "příjem textových zpráv (SMS)",
        "permlab_receiveWapPush": "příjem textových zpráv (WAP)",
        "permlab_recordAudio": "nahrávání zvuku",
        "permlab_recordBackgroundAudio": "zaznamenávat zvuk na pozadí",
        "permlab_register_call_provider": "registrování nových telekomunikačních připojení",
        "permlab_register_sim_subscription": "registrování nových komunikačních připojení přes SIM kartu",
        "permlab_removeDrmCertificates": "odstranění certifikátů DRM",
        "permlab_reorderTasks": "změna uspořádání spuštěných aplikací",
        "permlab_requestDeletePackages": "požádat o smazání balíčků",
        "permlab_requestIgnoreBatteryOptimizations": "požádat o ignorování optimalizace využití baterie",
        "permlab_requestInstallPackages": "odesílání žádostí o přístup k instalačním balíčkům",
        "permlab_requestPasswordComplexity": "zjistit složitost zámku obrazovky",
        "permlab_route_media_output": "směrování výstupu médií",
        "permlab_runInBackground": "spuštění na pozadí",
        "permlab_schedule_exact_alarm": "Plánovat přesně načasované akce",
        "permlab_sdcardRead": "čtení obsahu sdíleného úložiště",
        "permlab_sdcardWrite": "úprava nebo mazání obsahu sdíleného úložiště",
        "permlab_sendSms": "odesílání a zobrazování zpráv SMS",
        "permlab_setAlarm": "nastavení budíku",
        "permlab_setInputCalibration": "měnit kalibraci vstupního zařízení",
        "permlab_setTimeZone": "nastavení časového pásma",
        "permlab_setWallpaper": "nastavení tapety",
        "permlab_setWallpaperHints": "úprava velikosti tapety",
        "permlab_sim_communication": "odesílání příkazů do SIM karty",
        "permlab_startForegroundServicesFromBackground": "Spouštět z pozadí služby v popředí",
        "permlab_startReviewPermissionDecisions": "zobrazení rozhodnutí o oprávnění",
        "permlab_startViewAppFeatures": "zobrazení informací o funkcích aplikace",
        "permlab_startViewPermissionUsage": "spusti zobrazení využití oprávnění",
        "permlab_statusBar": "zakázání či změny stavového řádku",
        "permlab_statusBarService": "vydávání se za stavový řádek",
        "permlab_subscribedFeedsRead": "čtení zdrojů přihlášených k odběru",
        "permlab_systemAlertWindow": "Zobrazení přes ostatní aplikace",
        "permlab_systemCamera": "Udělení přístupu aplikace nebo služby k systémovým fotoaparátům za účelem pořizování fotek a videí",
        "permlab_transmitIr": "Infračervený přenos",
        "permlab_turnScreenOn": "zapnutí obrazovky",
        "permlab_uninstall_shortcut": "odinstalace zástupců",
        "permlab_updatePackagesWithoutUserAction": "aktualizace aplikace bez zásahu uživatele",
        "permlab_useBiometric": "použití biometrického hardwaru",
        "permlab_useDataInBackground": "využití dat na pozadí",
        "permlab_useFaceAuthentication": "použití hardwaru k odemknutí obličejem",
        "permlab_useFingerprint": "použití hardwaru na čtení otisků prstů",
        "permlab_use_exact_alarm": "Plánovat budíky nebo připomenutí událostí",
        "permlab_use_sip": "uskutečňování/příjem volání SIP",
        "permlab_uwb_ranging": "zjišťování vzájemné pozice mezi ultra-širokopásmovými zařízeními v okolí",
        "permlab_vibrate": "ovládání vibrací",
        "permlab_videoWrite": "upravit vaši sbírku videí",
        "permlab_wakeLock": "bránění přechodu telefonu do režimu spánku",
        "permlab_writeCalendar": "přidávání a upravování událostí kalendářů a odesílání e-mailů bez vědomí vlastníka",
        "permlab_writeCallLog": "zápis do seznamu hovorů",
        "permlab_writeContacts": "úprava kontaktů",
        "permlab_writeGeolocationPermissions": "změna oprávnění prohlížeče poskytovat informace o zeměpisné poloze",
        "permlab_writeHistoryBookmarks": "psaní webových záložek a historie",
        "permlab_writeSettings": "změna nastavení systému",
        "permlab_writeSyncSettings": "vypnutí nebo zapnutí synchronizace"
    },
    "sidebars": {
        "donate": {
            "bank_transfer_name": "Název",
            "bitcoin_alt": "Darovat pomocí Bitcoin",
            "credit_card": "Platební karta",
            "crypto": "Kryptoměna",
            "currency": "Měna",
            "flattr_alt": "Darovat pomocí Flattr",
            "heading": "Darovat",
            "hellotux": "👕 Tričko 👕 od",
            "hellotux_alt": "HELLOTUX",
            "hellotux_donation": "F-Droid obdrží 3 € za každé prodané tričko.",
            "liberapay_alt": "Darovat pomocí Liberapay",
            "litecoin_alt": "Darovat pomocí Litecoin",
            "more_options": "Více možností",
            "opencollective_alt": "Darujte našemu společenství",
            "paypal": "PayPal",
            "paypal_alt": "Darovat pomocí PayPal",
            "powered_by_donations": "F-Droid můžeme provozovat pouze díky Vašim darům!",
            "via_bank_transfer": "Bankovním převodem"
        },
        "lang": {
            "change": "Změnit"
        },
        "last_updated": {
            "heading": "Naposledy aktualizováno"
        },
        "latest_packages": {
            "heading": "Nejnovější aplikace"
        },
        "news": {
            "heading": "Novinky"
        },
        "search": {
            "heading": "Najít aplikaci",
            "noscript": "Vyžaduje zapnutý JavaScript",
            "search": "Hledat"
        }
    }
}
