{
    "antifeatures": {
        "Ads": "Táto aplikácia obsahuje reklamy",
        "DisabledAlgorithm": "Táto aplikácia má slabý bezpečnostný podpis",
        "KnownVuln": "Tato aplikácia má známu zraniteľnosť v zabezpečení",
        "NSFW": "Táto aplikácia obsahuje obsah, ktorý by nemal byt uverejňovaný alebo viditeľný všade",
        "NoSourceSince": "Zdrojový kód už nie je dostupný, aktualizácie už nie sú možné",
        "NonFreeAdd": "Táto aplikácia propaguje neslobodné doplnky",
        "NonFreeAssets": "Táto aplikácia obsahuje proprietárne časti",
        "NonFreeDep": "Táto aplikácia závisí na iných neslobodných aplikáciách",
        "NonFreeNet": "Táto aplikácia propaguje alebo je plne závislá od neslobodnej sieťovej služby",
        "Tracking": "Táto aplikácia zaznamenáva a hlási vaše aktivity",
        "UpstreamNonFree": "Originálny zdrojový kód nie je úplne slobodný"
    },
    "app_categories": {
        "Connectivity": "Pripojiteľnosť",
        "Development": "Vývoj",
        "Games": "Hry",
        "Graphics": "Grafika",
        "Internet": "Internet",
        "Money": "Financie",
        "Multimedia": "Multimédiá",
        "Navigation": "Navigácia",
        "Phone & SMS": "Telefón a SMS",
        "Reading": "Čítanie",
        "Science & Education": "Veda a výuka",
        "Security": "Bezpečnosť",
        "Sports & Health": "Šport a Zdravie",
        "System": "Systém",
        "Theming": "Témy",
        "Time": "Čas",
        "Writing": "Písanie",
        "show_all_packages": "Zobraziť všetkých %d balíkov"
    },
    "index": {
        "download_fdroid": "Stiahnuť F-Droid",
        "gpg_signature": "PGP Podpis",
        "introduction": "F-Droid je inštalovateľný katalóg FOSS (slobodný softvér s otvoreným zdrojom) aplikácií pre platformu Android. Klient uľahčuje prezeranie, inštaláciu a sledovanie aktualizácií na Vašom zariadení.",
        "screenshot": "Screenshot F-Droid Android aplikácie",
        "title": "Čo je F-Droid?"
    },
    "mirrors": {
        "cn": "Pevninská Čína",
        "de": "Nemecko",
        "indiana": "Indiana, USA",
        "se": "Švédsko",
        "tw": "Taiwan",
        "ua": "Ukrajina"
    },
    "navigation": {
        "about": "O",
        "apps": "Aplikácie",
        "contribute": "Prispieť",
        "documentation": "Dokumenty",
        "edit_on_gitlab": "Edituj na GitLabe",
        "forum": "Fórum",
        "issues": "Problémy",
        "news": "Novinky",
        "translate_on_weblate": "Preložiť na Weblate"
    },
    "news": {
        "newer_posts": "← Novšie príspevky",
        "older_posts": "Staršie príspevky →",
        "posted_on": "Uverejnené dňa {{ post_date }}"
    },
    "package": {
        "added_on": "Pridané dňa {{ package_added_date }}",
        "anti_features": "Anti-Funkcie",
        "anti_features_warning": "Táto aplikácia má funkcie, ktoré sa Vám nemusia páčiť.",
        "author": "Autor",
        "build_log": "Denník verzie",
        "build_metadata": "Metadáta verzie",
        "changelog": "Zoznam zmien (Changelog)",
        "donate": "Prispieť",
        "download": "Stiahnuť {{ file_extension }}",
        "flattr": "Flattr",
        "gpg_signature": "PGP Podpis",
        "issue_tracker": "Sledovač problémov",
        "liberapay": "Liberapay",
        "license": "Licencia",
        "minimum_android_version": "Táto verzia vyžaduje Android {{ android_version }} alebo novší.",
        "new_in_version": "Nové vo verzii {{ latest_version }}",
        "opencollective": "Open Collective",
        "package_icon_alt": "ikona balíka",
        "package_screenshot_alt": "snímka obrazovky aplikácie",
        "packages": "Balíky",
        "permissions": "Povolenia",
        "signed_by_developer": "Je to postavené a podpísané originálnym vývojárom.",
        "signed_by_fdroid": "Je to postavené a podpísané F-Droid-om, a garantovane korešponduje s <a href=\"{{ source_code_url }}\">this source tarball</a>.",
        "source_code": "Zdrojový kód",
        "suggest_downloading_via_fdroid": "Aby Ste mali možnosť výberu tak sú prístupné APK na stiahnutie nižšie, je treba si však uvedomiť, že ak to nainštalujete týmto spôsobom tak nebudete dostávať notifikácie o aktualizáciách a je to menej bezpečný spôsob stiahnutia. Doporučujeme Vám nainštalovať si klienta F-Droid a používať ho.",
        "suggested": "navrhnuté",
        "translation": "Preklad",
        "version_info": "<b>Verzia {{ package_version }}</b> ({{ package_version_code }})",
        "versions": "Verzie",
        "website": "Web stránka"
    },
    "permissions": {
        "permdesc_acceptHandovers": "Umožňuje aplikácii pokračovať v hovore začatom v inej aplikácii.",
        "permdesc_accessBackgroundLocation": "Táto aplikácia môže používať polohu kedykoľvek, dokonca aj keď nie je používaná.",
        "permdesc_accessCoarseLocation": "Keď túto aplikáciu používate, môže získavať vašu približnú polohu zo služieb určovania polohy. V zariadení musíte zapnúť služby určovania polohy, aby ju mohla získať.",
        "permdesc_accessDrmCertificates": "Umožňuje aplikácii vydávať a používať certifikáty DRM. Bežné aplikácie by toto povolenie nemali nikdy potrebovať.",
        "permdesc_accessFineLocation": "Keď túto aplikáciu používate, môže získavať vašu presnú polohu zo služieb určovania polohy. V zariadení musíte zapnúť služby určovania polohy, aby ju mohla získať. Môže to zvýšiť spotrebu batérie.",
        "permdesc_accessImsCallService": "Umožňuje aplikácii používať službu okamžitých správ (IMS) na volanie bez intervencie používateľa.",
        "permdesc_accessLocationExtraCommands": "Umožňuje aplikácii pristupovať k ďalším príkazom poskytovateľa informácií o polohe. Aplikácii to môže umožniť zasahovať do činnosti systému GPS alebo iných zdrojov informácií o polohe.",
        "permdesc_accessNetworkConditions": "Umožňuje aplikácii zachytávať informácie o stave siete. Bežné aplikácie by toto povolenie nemali nikdy potrebovať.",
        "permdesc_accessNetworkState": "Umožňuje aplikácii zobraziť informácie o sieťových pripojeniach, ako napríklad o tom, ktoré siete sú k dispozícii a ktoré sú pripojené.",
        "permdesc_accessNotifications": "Umožňuje aplikácii načítať, zobrazovať a mazať upozornenia vrátane tých, ktoré boli uverejnené inými aplikáciami.",
        "permdesc_accessWifiState": "Umožňuje aplikácii zobraziť informácie o sieťach Wi‑Fi. Napríklad o tom, či je sieť Wi‑Fi povolená alebo názvy pripojených zariadení Wi‑Fi.",
        "permdesc_accessWimaxState": "Umožňuje aplikácii určiť, či je povolený štandard WiMAX, a tiež informácie o všetkých pripojených sieťach WiMAX.",
        "permdesc_access_notification_policy": "Umožňuje aplikácii čítať a zapisovať konfiguráciu režimu bez vyrušení.",
        "permdesc_activityRecognition": "Táto aplikácia dokáže rozpoznať vašu fyzickú aktivitu.",
        "permdesc_addVoicemail": "Umožní aplikácii pridávať správy do doručenej pošty hlasovej schránky.",
        "permdesc_answerPhoneCalls": "Umožňuje aplikácii odpovedať na prichádzajúce telefonáty.",
        "permdesc_audioWrite": "Umožňuje aplikácii upravovať hudobnú zbierku.",
        "permdesc_backgroundCamera": "Táto aplikácia môže kedykoľvek fotiť a nahrávať videá pomocou fotoaparátu.",
        "permdesc_bindCarrierMessagingService": "Umožňuje držiteľovi viazať sa na najvyššiu úroveň rozhrania služby na odosielanie správ SMS a MMS operátora. Bežné aplikácie by toto nastavenie nemali nikdy potrebovať.",
        "permdesc_bindCarrierServices": "Umožňuje držiteľovi povolenia naviazať sa na služby operátora. Bežné aplikácie by toto povolenie nemali nikdy nepotrebovať.",
        "permdesc_bindCellBroadcastService": "Umožňuje aplikácii spojiť sa s modulom správ informačných služieb s cieľom preposielať prichádzajúce správy informačných služieb. Správy informačných služieb sa doručujú na určitých miestach a upozorňujú na tiesňové situácie. Škodlivé aplikácie môžu pri prijatí správy informačnej služby narušiť výkonnosť alebo prevádzku vášho zariadenia.",
        "permdesc_bindConditionProviderService": "Umožňuje držiteľovi viazať sa na najvyššiu úroveň rozhrania služby poskytovateľa podmienky. Bežné aplikácie by toto povolenie nemali nikdy potrebovať.",
        "permdesc_bindDreamService": "Umožňuje držiteľovi viazať sa na najvyššiu úroveň rozhrania služby Dream service. Bežné aplikácie by toto povolenie nemali nikdy potrebovať.",
        "permdesc_bindNotificationListenerService": "Umožňuje držiteľovi naviazať sa na najvyššiu úroveň služby na počúvanie upozornení. Bežné aplikácie by toto nastavenie nemali nikdy požadovať.",
        "permdesc_bind_connection_service": "Umožňuje aplikácii komunikovať s telefonickými službami a uskutočňovať a prijímať hovory.",
        "permdesc_bind_incall_service": "Umožňuje aplikácii ovládať, kedy a ako sa používateľovi zobrazí obrazovka hovoru.",
        "permdesc_bluetooth": "Umožňuje aplikácii zobraziť informácie o konfigurácii Bluetooth na tablete. Taktiež jej umožňuje nadväzovať a akceptovať spojenia so spárovanými zariadeniami.",
        "permdesc_bluetoothAdmin": "Umožňuje aplikácii konfigurovať miestny tablet s rozhraním Bluetooth a vyhľadávať a spárovať vzdialené zariadenia.",
        "permdesc_bluetooth_advertise": "Umožňuje aplikácii zobrazovať reklamu v zariadeniach s rozhraním Bluetooth v okolí",
        "permdesc_bluetooth_connect": "Umožňuje aplikácii pripojiť sa k spárovaným zariadeniam s rozhraním Bluetooth",
        "permdesc_bluetooth_scan": "Umožňuje aplikácii objaviť zariadenia s rozhraním Bluetooth nablízku a spárovať sa s nimi",
        "permdesc_bodySensors": "Umožňuje aplikácii získať prístup k údajom senzorov monitorujúcich vašu fyzickú kondíciu (napríklad pulz).",
        "permdesc_bodySensors_background": "Poskytne aplikácii prístup k dátam telových senzorov, ako sú pulz, teplota a saturácia krvi kyslíkom počas spustenia aplikácie na pozadí.",
        "permdesc_broadcastSticky": "Umožňuje aplikácii odosielať trvalé vysielania, ktoré pretrvávajú aj po skončení vysielania. Nadmerné používanie môže tablet spomaliť alebo spôsobiť jeho nestabilitu, pretože bude používať príliš veľa pamäte.",
        "permdesc_callCompanionApp": "Umožňuje aplikácii zobrazovať a kontrolovať prebiehajúce hovory v zariadení. Táto možnosť zahŕňa údaje, akými sú napríklad čísla jednotlivých hovorov alebo stav hovorov.",
        "permdesc_callPhone": "Umožňuje aplikácii volať telefónne čísla bez vášho zásahu. V dôsledku toho sa môžu účtovať neočakávané poplatky alebo sa môžu uskutočniť neočakávané hovory. Toto povolenie neumožňuje aplikácii volať na tiesňovú linku.",
        "permdesc_camera": "Táto aplikácia môže fotiť a nahrávať videá pomocou fotoaparátu, keď ju používate.",
        "permdesc_cameraOpenCloseListener": "Táto aplikácia môže prijímať spätné volania pri otváraní alebo zatváraní ľubovoľného fotoaparátu (s informáciou o aplikácii, ktorá to robí).",
        "permdesc_changeNetworkState": "Umožňuje aplikácii zmeniť stav sieťovej konektivity.",
        "permdesc_changeTetherState": "Umožňuje aplikácii zmeniť stav sieťového pripojenia zdieľaného pomocou tetheringu.",
        "permdesc_changeWifiMulticastState": "Umožňuje aplikácii prijímať pakety odoslané na všetky zariadenia v sieti Wi‑Fi pomocou viacsmerových adries, nielen pomocou vášho tabletu. Spotrebuje viac energie ako režim bez viacsmerového vysielania.",
        "permdesc_changeWifiState": "Umožňuje aplikácii pripojiť sa na prístupové body siete Wi‑Fi, odpojiť sa od nich a meniť konfiguráciu zariadení pre siete Wi‑Fi.",
        "permdesc_changeWimaxState": "Umožňuje aplikácii pripojiť tablet k sieťam WiMAX a odpojiť ho od nich.",
        "permdesc_companionProfileWatch": "Umožňuje sprievodnej aplikácii spravovať hodinky.",
        "permdesc_connection_manager": "Povoľuje aplikácii spravovať pripojenia telekomunikačnej siete.",
        "permdesc_control_incall_experience": "Umožňuje aplikácii zobraziť používateľské prostredie počas hovoru.",
        "permdesc_createNetworkSockets": "Umožňuje aplikácii vytvárať sokety siete a používať vlastné protokoly siete. Toto povolenie sa pri odosielaní údajov na internet nevyžaduje, pretože prostriedky na odosielanie údajov na internet poskytujú prehliadač a iné aplikácie.",
        "permdesc_deliverCompanionMessages": "Umožňuje sprievodnej aplikácii doručovať sprievodné správy do iných zariadení.",
        "permdesc_detectScreenCapture": "Táto aplikácia dostane upozornenie, keď bude počas jej používania vytvorená snímka obrazovky.",
        "permdesc_disableKeyguard": "Umožňuje aplikácii zakázať uzamknutie klávesnice a akékoľvek súvisiace zabezpečenie heslom. Príkladom je zakázanie uzamknutia klávesnice pri prichádzajúcom telefonickom hovore a jeho opätovné povolenie po skončení hovoru.",
        "permdesc_enableCarMode": "Umožňuje aplikácii povoliť režim V aute.",
        "permdesc_exemptFromAudioRecordRestrictions": "Osloboďte aplikáciu z obmedzení nahrávania zvuku.",
        "permdesc_expandStatusBar": "Umožňuje aplikácii rozbaliť alebo zbaliť stavový riadok.",
        "permdesc_foregroundService": "Umožňuje aplikácii používať služby v popredí.",
        "permdesc_foregroundServiceCamera": "Umožňuje aplikácii využívať služby na popredí s typom camera",
        "permdesc_foregroundServiceConnectedDevice": "Umožňuje aplikácii využívať služby na popredí s typom connectedDevice",
        "permdesc_foregroundServiceDataSync": "Umožňuje aplikácii využívať služby na popredí s typom dataSync",
        "permdesc_foregroundServiceFileManagement": "Umožňuje aplikácii využívať služby na popredí s typom fileManagement",
        "permdesc_foregroundServiceHealth": "Umožňuje aplikácii využívať služby na popredí s typom health",
        "permdesc_foregroundServiceLocation": "Umožňuje aplikácii využívať služby na popredí s typom location",
        "permdesc_foregroundServiceMediaPlayback": "Umožňuje aplikácii využívať služby na popredí s typom mediaPlayback",
        "permdesc_foregroundServiceMediaProjection": "Umožňuje aplikácii využívať služby na popredí s typom mediaProjection",
        "permdesc_foregroundServiceMicrophone": "Umožňuje aplikácii využívať služby na popredí s typom microphone",
        "permdesc_foregroundServicePhoneCall": "Umožňuje aplikácii využívať služby na popredí s typom phoneCall",
        "permdesc_foregroundServiceRemoteMessaging": "Umožňuje aplikácii využívať služby na popredí s typom remoteMessaging",
        "permdesc_foregroundServiceSpecialUse": "Umožňuje aplikácii využívať služby na popredí s typom specialUse",
        "permdesc_foregroundServiceSystemExempted": "Umožňuje aplikácii využívať služby na popredí s typom dataSync systemExempted",
        "permdesc_fullScreenIntent": "Táto možnosť umožňuje aplikácii zobrazovať upozornenia ako aktivity na celej obrazovke v uzamknutom zariadení",
        "permdesc_getAccounts": "Umožňuje aplikácii získať zoznam účtov v tablete. Môžu sem patriť akékoľvek účty vytvorené aplikáciami, ktoré ste nainštalovali.",
        "permdesc_getPackageSize": "Umožňuje aplikácii načítať svoj kód, údaje a veľkosti vyrovnávacej pamäte",
        "permdesc_getTasks": "Umožňuje aplikácii načítať informácie o aktuálne či nedávno spustených úlohách. Toto povolenie môže aplikácii umožniť objaviť informácie o tom, ktoré aplikácie sa na zariadení používajú.",
        "permdesc_handoverStatus": "Povoľuje tejto aplikácii prijímať informácie o aktuálnych prenosoch funkcie Android Beam",
        "permdesc_hideOverlayWindows": "Táto aplikácia môže žiadať, aby systém skryl prekrytia z aplikácií, aby sa nezobrazovali cez ňu.",
        "permdesc_highSamplingRateSensors": "Umožňuje aplikácii vzorkovať dáta senzorov s frekvenciou vyššou ako 200 Hz",
        "permdesc_imagesWrite": "Umožňuje aplikácii upravovať zbierku fotiek.",
        "permdesc_install_shortcut": "Povoľuje aplikácii pridať odkazy na ploche bez zásahu používateľa.",
        "permdesc_invokeCarrierSetup": "Umožňuje držiteľovi vyvolať aplikáciu pre konfiguráciu poskytnutú operátorom. Bežné aplikácie by toto povolenie nemali nikdy potrebovať.",
        "permdesc_killBackgroundProcesses": "Umožňuje aplikácii ukončiť procesy na pozadí ostatných aplikácií. Môže to zapríčiniť zastavenie ostatných aplikácií.",
        "permdesc_manageFace": "Umožňuje aplikácii vyvolať metódy, ktoré pridávajú a odstraňujú šablóny tvárí.",
        "permdesc_manageFingerprint": "Umožňuje aplikácii zavolať metódy, ktoré pridávajú a odstraňujú vzory odtlačkov prstov.",
        "permdesc_manageNetworkPolicy": "Umožňuje aplikácii spravovať pravidlá siete a definovať pravidlá pre konkrétnu aplikáciu.",
        "permdesc_manageOngoingCalls": "Povolí aplikácii čítať podrobnosti o prebiehajúcich hovoroch v zariadení a ovládať ich.",
        "permdesc_manageOwnCalls": "Umožňuje aplikácii presmerovať hovory cez systém na účely zlepšenia kvality hovorov.",
        "permdesc_manageProfileAndDeviceOwners": "Povolí aplikáciám nastaviť vlastníkov profilov a vlastníka zariadenia.",
        "permdesc_mediaLocation": "Umožňuje aplikácii čítať polohy zo zbierky médií.",
        "permdesc_modifyAudioSettings": "Umožňuje aplikácii upraviť globálne nastavenia zvuku, ako je hlasitosť, alebo určiť, z ktorého reproduktora bude zvuk vychádzať.",
        "permdesc_modifyNetworkAccounting": "Umožňuje aplikácii upraviť používanie siete jednotlivými aplikáciami. Bežné aplikácie toto nastavenie nepoužívajú.",
        "permdesc_nearby_wifi_devices": "Umožňuje aplikácii oznamovať a rozpoznávať relatívnu polohu zariadení Wi‑Fi v okolí a pripájať sa k nim",
        "permdesc_nfc": "Umožňuje aplikácii komunikovať so značkami, kartami a čítačkami s podporou technológie NFC.",
        "permdesc_observeCompanionDevicePresence": "Umožňuje sprievodnej aplikácii sledovať prítomnosť sprievodného zariadenia, keď sú zariadenia nablízku alebo ďaleko.",
        "permdesc_persistentActivity": "Umožňuje aplikácii uložiť niektoré svoje časti natrvalo do pamäte. Môže to obmedziť pamäť dostupnú pre ostatné aplikácie a spomaliť tak tablet.",
        "permdesc_postNotification": "Povolí aplikácii zobrazovať upozornenia",
        "permdesc_preferredPaymentInfo": "Umožňuje aplikácii získavať preferované informácie platobnej služby NFC, napríklad o registrovanej pomoci a trase k cieľu.",
        "permdesc_processOutgoingCalls": "Umožňuje aplikácii počas odchádzajúceho hovoru rozpoznať vytáčané číslo a poskytuje možnosť presmerovať daný hovor na odlišné číslo alebo ho úplne zrušiť.",
        "permdesc_queryAllPackages": "Povoľuje aplikácii čítať všetky nainštalované balíky.",
        "permdesc_readBasicPhoneState": "Umožňuje aplikácii prístup k základným telefonickým funkciám zariadenia.",
        "permdesc_readCalendar": "Táto aplikácia môže čítať všetky udalosti kalendára uložené vo vašom tablete a zdieľať alebo ukladať dáta kalendára.",
        "permdesc_readCallLog": "Táto aplikácia môže čítať históriu vašich hovorov.",
        "permdesc_readCellBroadcasts": "Umožňuje aplikácii čítať správy informačných služieb prijaté vaším zariadením. Správy informačných služieb sa doručujú na určitých miestach a upozorňujú na tiesňové situácie. Škodlivé aplikácie môžu pri prijatí správy informačnej služby narušiť výkonnosť alebo prevádzku vášho zariadenia.",
        "permdesc_readContacts": "Umožňuje aplikácii čítať údaje o kontaktoch uložených v telefóne. Aplikácie budú mať tiež prístup k účtom v telefóne, ktoré vytvorili kontakty. Môže ísť o účty vytvorené aplikáciami, ktoré ste nainštalovali. Toto povolenie umožňuje aplikáciám ukladať údaje o kontaktoch. Škodlivé aplikácie môžu zdieľať údaje o kontaktoch bez vášho vedomia.",
        "permdesc_readHistoryBookmarks": "Umožňuje aplikácii čítať všetky webové adresy navštívené prehliadačom a všetky záložky prehliadača. Poznámka: Toto povolenie nemôžu vynucovať prehliadače tretej strany ani iné aplikácie umožňujúce prehliadanie webu.",
        "permdesc_readInstallSessions": "Toto povolenie umožňuje aplikácii čítať relácie inštalácií a zobraziť tak podrobnosti o aktívnych inštaláciách balíkov.",
        "permdesc_readMediaAudio": "Umožňuje aplikácii čítať zvukové súbory z vášho zdieľaného priestoru.",
        "permdesc_readMediaImages": "Umožňuje aplikácii čítať súbory obrázka z vášho zdieľaného priestoru.",
        "permdesc_readMediaVideo": "Umožňuje aplikácii čítať videosúbory z vášho zdieľaného priestoru.",
        "permdesc_readNetworkUsageHistory": "Umožňuje aplikácii čítať históriu používania siete pre určité siete a aplikácie.",
        "permdesc_readPhoneNumbers": "Umožňuje aplikácii pristupovať k telefónnym číslam zariadenia.",
        "permdesc_readPhoneState": "Umožňuje aplikácii pristupovať k telefónnym funkciám zariadenia. Aplikácia s týmto povolením môže určiť telefónne číslo a ID zariadenia, či práve prebieha hovor, a vzdialené číslo, s ktorým je prostredníctvom hovoru nadviazané spojenie.",
        "permdesc_readSms": "Táto aplikácia môže čítať všetky textové správy (SMS) uložené vo vašom tablete.",
        "permdesc_readSyncSettings": "Umožňuje aplikácii čítať nastavenia synchronizácie v účte. Môže napríklad určiť, či je s účtom synchronizovaná aplikácia Ľudia.",
        "permdesc_readSyncStats": "Umožňuje aplikácii čítať štatistické informácie o synchronizácii v účte vrátane histórie uskutočnených synchronizácií a informácií o množstve synchronizovaných údajov.",
        "permdesc_readVisualUserSelect": "Umožňuje aplikácii čítať obrázkové súbory a videosúbory, ktoré vyberiete vo svojom zdieľanom ukladacom priestore.",
        "permdesc_receiveBootCompleted": "Umožňuje aplikácii spustiť sa hneď po spustení systému. Toto nastavenie môže spomaliť spustenie tabletu a tiež jeho celkový výkon, pretože aplikácia bude neustále spustená.",
        "permdesc_receiveMms": "Umožňuje aplikácii prijímať a spracovávať správy MMS. Znamená to, že aplikácia môže sledovať správy odoslané na vaše zariadenie alebo ich odstrániť bez toho, aby sa vám zobrazili.",
        "permdesc_receiveSms": "Umožňuje aplikácii prijímať a spracovávať správy SMS. Znamená to, že aplikácia môže sledovať správy odoslané na vaše zariadenie alebo ich odstrániť bez toho, aby sa vám zobrazili.",
        "permdesc_receiveWapPush": "Umožňuje aplikácii prijímať a spracovávať správy WAP. Toto povolenie zahŕňa možnosť sledovať vaše správy alebo ich odstrániť bez toho, aby sa vám zobrazili.",
        "permdesc_recordAudio": "Táto aplikácia môže nahrávať zvuk pomocou mikrofónu, keď ju používate.",
        "permdesc_recordBackgroundAudio": "Táto aplikácia môže kedykoľvek nahrávať zvuk pomocou mikrofónu.",
        "permdesc_register_call_provider": "Povoľuje aplikácii registrovať nové pripojenia telekomunikačnej siete.",
        "permdesc_register_sim_subscription": "Povoľuje aplikácii registrovať nové pripojenia telekomunikačnej siete SIM.",
        "permdesc_removeDrmCertificates": "Umožňuje aplikácii odstraňovať certifikáty DRM. Bežné aplikácie by toto povolenie nemali nikdy potrebovať.",
        "permdesc_reorderTasks": "Umožňuje aplikácii presunúť úlohy do popredia alebo do pozadia. Aplikácia tak môže urobiť bez vášho zásahu.",
        "permdesc_requestDeletePackages": "Umožňuje aplikácii vyžiadať odstránenie balíkov.",
        "permdesc_requestIgnoreBatteryOptimizations": "Umožňuje aplikácii požiadať o povolenie ignorovať optimalizácie výdrže batérie pre danú aplikáciu.",
        "permdesc_requestInstallPackages": "Umožňuje aplikácii vyžiadať inštaláciu balíkov.",
        "permdesc_requestPasswordComplexity": "Umožňuje aplikácii zapamätať si úroveň zložitosti zámky obrazovky (vysoká, stredná, nízka alebo žiadna), ktorá udáva pravdepodobný rozsah dĺžky a typu zámky obrazovky. Aplikácia tiež navrhuje používateľom aktualizáciu zámky obrazovky na určitú úroveň, používatelia sa však môžu na základe vlastného uváženia rozhodnúť tento návrh ignorovať a prejsť inam. Upozorňujeme, že zámka obrazovky nie je uložená vo forme obyčajného textu, takže aplikácia nepozná presné heslo.",
        "permdesc_route_media_output": "Umožňuje aplikácii smerovať výstup médií do ďalších externých zariadení.",
        "permdesc_runInBackground": "Táto aplikácia sa môže spustiť na pozadí a rýchlejšie tak vybiť batériu.",
        "permdesc_schedule_exact_alarm": "Táto aplikácia môže naplánovať, aby bola určitá činnosť vykonaná v určenom čase v budúcnosti. Znamená to, že môže byť spustená, keď zariadenie aktívne nepoužívate.",
        "permdesc_sdcardRead": "Umožňuje aplikácii čítať obsah zdieľaného úložiska.",
        "permdesc_sdcardWrite": "Umožňuje aplikácii zapisovať obsah zdieľaného úložiska.",
        "permdesc_sendSms": "Umožňuje aplikácii odosielať správy SMS. Môže to mať za následok účtovanie neočakávaných poplatkov. Škodlivé aplikácie vám môžu spôsobiť výdavky odosielaním správ bez vášho potvrdenia.",
        "permdesc_setAlarm": "Umožňuje aplikácii nastaviť budík v nainštalovanej aplikácii budík. Niektoré aplikácie budíka nemusia túto funkciu implementovať.",
        "permdesc_setInputCalibration": "Umožňuje aplikácii upraviť parametre kalibrácie dotykovej obrazovky. Bežné aplikácie by toto povolenie nemali nikdy potrebovať.",
        "permdesc_setTimeZone": "Umožňuje aplikácii zmeniť časové pásmo tabletu.",
        "permdesc_setWallpaper": "Umožňuje aplikácii nastaviť tapetu systému.",
        "permdesc_setWallpaperHints": "Umožňuje aplikácii nastaviť tipy pre veľkosť tapety systému.",
        "permdesc_sim_communication": "Umožňuje aplikácii odosielať príkazy na SIM kartu. Toto je veľmi nebezpečné povolenie.",
        "permdesc_startForegroundServicesFromBackground": "Umožňuje sprievodnej aplikácii spúšťať služby na popredí z pozadia.",
        "permdesc_startReviewPermissionDecisions": "Umožňuje držiteľovi spustiť obrazovku a skontrolovať rozhodnutia o povoleniach. Bežné aplikácie by toto povolenie nemali nikdy potrebovať.",
        "permdesc_startViewAppFeatures": "Umožňuje držiteľovi zobraziť informácie o funkciách aplikácie.",
        "permdesc_startViewPermissionUsage": "Umožňuje držiteľovi spustiť používanie povolenia aplikáciou. Bežné aplikácie by toto povolenie nemali nikdy potrebovať.",
        "permdesc_statusBar": "Umožňuje aplikácii vypnúť stavový riadok alebo pridať a odstrániť systémové ikony.",
        "permdesc_statusBarService": "Umožňuje aplikácii fungovať ako stavový riadok.",
        "permdesc_subscribedFeedsRead": "Umožňuje aplikácii získať podrobnosti o aktuálne synchronizovaných informačných kanáloch.",
        "permdesc_systemAlertWindow": "Táto aplikácia sa môže zobraziť nad ostatnými aplikáciami alebo ďalšími časťami obrazovky. Môže tak narušovať normálne používanie aplikácií a zmeniť spôsob zobrazenia ďalších aplikácií.",
        "permdesc_systemCamera": "Táto oprávnená alebo systémová aplikácia môže kedykoľvek fotiť a nahrávať videá fotoaparátom systému. Aplikácia musí mať tiež povolenie android.permission.CAMERA.",
        "permdesc_transmitIr": "Umožňuje aplikácii používať infračervený vysielač tabletu.",
        "permdesc_turnScreenOn": "Umožňuje aplikácii zapnúť obrazovku.",
        "permdesc_uninstall_shortcut": "Povoľuje aplikácii odstrániť odkazy na ploche bez zásahu používateľa.",
        "permdesc_updatePackagesWithoutUserAction": "Povolí vlastníkovi aktualizovať aplikáciu, ktorá bola nainštalovaná bez akcie používateľa",
        "permdesc_useBiometric": "Umožňuje aplikácii používať na overenie totožnosti biometrický hardvér",
        "permdesc_useDataInBackground": "Táto aplikácia môže využívať dáta na pozadí a zvýšiť tak spotrebu dát.",
        "permdesc_useFaceAuthentication": "Umožňuje aplikácii používať na overenie totožnosti hardvér Odomknutia tvárou",
        "permdesc_useFingerprint": "Umožňuje aplikácii používať na overenie hardvér na odtlačky prstov",
        "permdesc_use_exact_alarm": "Táto aplikácia môže naplánovať určité akcie, napríklad budíky a pripomenutia, ktoré vás upozornia v určenom čase v budúcnosti.",
        "permdesc_use_sip": "Umožňuje aplikácii uskutočňovať a prijímať hovory SIP.",
        "permdesc_uwb_ranging": "Povoľte aplikácii určovať relatívnu polohu medzi zariadeniami s ultraširokopásmovým pripojením v okolí",
        "permdesc_vibrate": "Umožňuje aplikácii ovládať vibrácie.",
        "permdesc_vibrator_state": "Povoľuje aplikácii prístup k stavu vibrácií.",
        "permdesc_videoWrite": "Umožňuje aplikácii upravovať zbierku videí.",
        "permdesc_wakeLock": "Umožňuje aplikácii zabrániť vypnutiu obrazovky auta.",
        "permdesc_writeCalendar": "Táto aplikácia môže pridávať, odstraňovať alebo meniť udalosti kalendára vo vašom tablete. Táto aplikácia môže odosielať správy od vlastníkov kalendára alebo meniť udalosti bez upozornenia ich vlastníkov.",
        "permdesc_writeCallLog": "Umožňuje aplikácii upravovať denník hovorov vo vašom tablete vrátane údajov o prichádzajúcich a odchádzajúcich hovoroch. Škodlivé aplikácie to môžu zneužiť na vymazanie alebo úpravu vášho denníka hovorov.",
        "permdesc_writeContacts": "Umožňuje aplikácii upraviť údaje o kontaktoch uložených v telefóne. Toto povolenie umožňuje aplikáciám odstraňovať údaje o kontaktoch.",
        "permdesc_writeGeolocationPermissions": "Umožňuje aplikácii zmeniť povolenia prehliadača na poskytovanie údajov o zemepisnej polohe. Škodlivé aplikácie to môžu použiť na odosielanie informácií o polohe ľubovoľným webovým stránkam.",
        "permdesc_writeHistoryBookmarks": "Umožňuje aplikácii upraviť históriu prehliadača alebo záložky uložené v tablete. Aplikácia s týmto povolením môže vymazať alebo upraviť údaje prehliadača. Poznámka: Toto povolenie nemôžu vynucovať prehliadače tretích strán ani žiadne ďalšie aplikácie umožňujúce prehliadanie webu.",
        "permdesc_writeSettings": "Umožňuje aplikácii zmeniť údaje nastavení systému. Škodlivé aplikácie môžu poškodiť konfiguráciu vášho systému.",
        "permdesc_writeSyncSettings": "Umožňuje aplikácii upraviť nastavenia synchronizácie v účte. Pomocou tohto povolenia je možné napríklad povoliť synchronizáciu aplikácie Ľudia s účtom.",
        "permgroupbackgroundrequest_location": "Povoľte aplikácií požiadať o polohu na pozadí.",
        "permgroupbackgroundrequestdetail_location": "Aplikácia aktuálne môže získať prístup k polohe len keď používate aplikáciu",
        "permgroupdesc_activityRecognition": "prístup k vašej fyzickej aktivite",
        "permgroupdesc_calendar": "prístup ku kalendáru",
        "permgroupdesc_calllog": "čítať a zapisovať do zoznamu hovorov",
        "permgroupdesc_camera": "fotenie a natáčanie videí",
        "permgroupdesc_contacts": "prístup ku kontaktom",
        "permgroupdesc_location": "prístup k polohe tohto zariadenia",
        "permgroupdesc_microphone": "nahrávanie zvuku",
        "permgroupdesc_nearby_devices": "objavovať a pripájať zariadenia v okolí",
        "permgroupdesc_notifications": "zobrazovať upozornenia",
        "permgroupdesc_phone": "telefonovanie a správu hovorov",
        "permgroupdesc_readMediaAural": "prístup k hudbe a zvuku vo vašom zariadení",
        "permgroupdesc_readMediaVisual": "prístup k fotkám a videám vo vašom zariadení",
        "permgroupdesc_sensors": "prístup k dátam senzorov vašich životných funkcií",
        "permgroupdesc_sms": "posielanie a zobrazovanie SMS",
        "permgroupdesc_storage": "prístup k fotkám, médiám a súborom v zariadení",
        "permgrouplab_activityRecognition": "Fyzická aktivita",
        "permgrouplab_calendar": "Kalendár",
        "permgrouplab_calllog": "Zoznam hovorov",
        "permgrouplab_camera": "Fotoaparát",
        "permgrouplab_contacts": "Kontakty",
        "permgrouplab_location": "Poloha",
        "permgrouplab_microphone": "Mikrofón",
        "permgrouplab_nearby_devices": "Zariadenia v okolí",
        "permgrouplab_notifications": "Upozornenia",
        "permgrouplab_phone": "Telefón",
        "permgrouplab_readMediaAural": "Hudba a zvuk",
        "permgrouplab_readMediaVisual": "Fotky a videá",
        "permgrouplab_sensors": "Telové senzory",
        "permgrouplab_sms": "SMS",
        "permgrouplab_storage": "Súbory",
        "permgrouprequest_activityRecognition": "Dovoľte aplikácií sledovať vašu aktivitu.",
        "permgrouprequest_calendar": "Dovoliť <b></b>",
        "permgrouprequest_calllog": "Dovoliť <b></b>",
        "permgrouprequest_camera": "Dovoliť <b></b>",
        "permgrouprequest_contacts": "Dovoliť <b></b>",
        "permgrouprequest_location": "Dovoliť <b></b>",
        "permgrouprequest_microphone": "Dovoliť <b></b>",
        "permgrouprequest_phone": "Dovoliť <b></b>",
        "permgrouprequest_sensors": "Dovoliť <b></b>",
        "permgrouprequest_sms": "Dovoliť <b></b>",
        "permgrouprequest_storage": "Dovoliť <b></b>",
        "permgrouprequestdetail_location": "Aplikácia bude mať prístup k polohe len kým budete používať aplikáciu",
        "permlab_acceptHandover": "pokračovať v hovore z inej aplikácie",
        "permlab_accessBackgroundLocation": "prístup k polohe na pozadí",
        "permlab_accessCoarseLocation": "prístup k približnej polohe iba v popredí",
        "permlab_accessDrmCertificates": "prístup k certifikátom DRM",
        "permlab_accessFineLocation": "prístup k presnej polohe iba v popredí",
        "permlab_accessImsCallService": "prístup k službe volania IMS",
        "permlab_accessLocationExtraCommands": "prístup k ďalším príkazom poskytovateľa polohy",
        "permlab_accessNetworkConditions": "zachytávať informácie o stave siete",
        "permlab_accessNetworkState": "zobraziť sieťové pripojenia",
        "permlab_accessNotifications": "prístup k upozorneniam",
        "permlab_accessWifiState": "zobraziť pripojenia Wi‑Fi",
        "permlab_accessWimaxState": "pripojiť a odpojiť od WiMAX",
        "permlab_access_notification_policy": "prístup k režimu bez vyrušení",
        "permlab_activityRecognition": "rozpoznávanie fyzickej aktivity",
        "permlab_addVoicemail": "pridať hlasovú schránku",
        "permlab_answerPhoneCalls": "odpovedanie na telefonické hovory",
        "permlab_audioWrite": "upravovať hudobnú zbierku",
        "permlab_backgroundCamera": "fotenie a nahrávanie videí na pozadí",
        "permlab_bindCarrierMessagingService": "viazať sa na službu na odosielanie správ SMS a MMS operátora",
        "permlab_bindCarrierServices": "naviazať sa na služby operátora",
        "permlab_bindCellBroadcastService": "Preposielanie správ informačných služieb",
        "permlab_bindConditionProviderService": "viazanie na službu poskytovateľa podmienky",
        "permlab_bindDreamService": "viazať sa so službou Dream service",
        "permlab_bindNotificationListenerService": "naviazanie sa na službu na počúvanie upozornení",
        "permlab_bind_connection_service": "komunikovať s telefonickými službami",
        "permlab_bind_incall_service": "interakcia s obrazovkou hovoru",
        "permlab_bluetooth": "párovať so zariadeniami Bluetooth",
        "permlab_bluetoothAdmin": "pristupovať k nastaveniam Bluetooth",
        "permlab_bluetooth_advertise": "zobrazovanie reklamy v zariad. Bluetooth v okolí",
        "permlab_bluetooth_connect": "pripojiť sa k spárovaným zariadeniam Bluetooth",
        "permlab_bluetooth_scan": "objaviť zariad. Bluetooth nablízku a spárovať sa",
        "permlab_bodySensors": "prístup k telesným senzorom (ako sú snímače tepu)",
        "permlab_bodySensors_background": "Prístup k dátam telových senzorov (napríklad pulzu) počas spustenia na pozadí",
        "permlab_broadcastSticky": "odoslanie trvalého vysielania",
        "permlab_callCompanionApp": "zobrazenie a kontrola hovorov prostredníctvom systému.",
        "permlab_callPhone": "priamo volať na telefónne čísla",
        "permlab_camera": "fotiť a nakrúcať videá",
        "permlab_cameraOpenCloseListener": "Povoliť aplikácii alebo službe prijímať spätné volanie, keď sú zariadenia s kamerou otvorené alebo zatvorené.",
        "permlab_changeNetworkState": "zmena sieťového pripojenia",
        "permlab_changeTetherState": "zmeniť zdieľané dátové pripojenie",
        "permlab_changeWifiMulticastState": "povoliť príjem Wi‑Fi Multicast",
        "permlab_changeWifiState": "pripojiť a odpojiť od siete Wi‑Fi",
        "permlab_changeWimaxState": "zmeniť stav WiMAX",
        "permlab_companionProfileWatch": "Povolenie profilu hodiniek pre sprievodnú aplikáciu umožňujúce spravovať hodinky",
        "permlab_connection_manager": "správa pripojení telefonických sietí",
        "permlab_control_incall_experience": "zobrazenie používateľského prostredia počas hovoru",
        "permlab_createNetworkSockets": "úplný prístup k sieti",
        "permlab_deliverCompanionMessages": "Doručovať sprievodné správy",
        "permlab_detectScreenCapture": "rozpoznávanie snímaní obrazovky zahŕňajúcich okná aplikácie",
        "permlab_disableKeyguard": "deaktivácia zámky obrazovky",
        "permlab_enableCarMode": "aktivovať režim V aute",
        "permlab_exemptFromAudioRecordRestrictions": "udelenie výnimky z obmedzení nahrávania zvuku",
        "permlab_expandStatusBar": "rozbalenie a zbalenie stavového riadka",
        "permlab_foregroundService": "spustiť službu v popredí",
        "permlab_foregroundServiceCamera": "spustiť službu na popredí s typom camera",
        "permlab_foregroundServiceConnectedDevice": "spustiť službu na popredí s typom connectedDevice",
        "permlab_foregroundServiceDataSync": "spustiť službu na popredí s typom dataSync",
        "permlab_foregroundServiceFileManagement": "spúšťať službu na popredí s typom remoteMessaging",
        "permlab_foregroundServiceHealth": "spustiť službu na popredí s typom health",
        "permlab_foregroundServiceLocation": "spustiť službu na popredí s typom location",
        "permlab_foregroundServiceMediaPlayback": "spustiť službu na popredí s typom mediaPlayback",
        "permlab_foregroundServiceMediaProjection": "spustiť službu na popredí s typom mediaProjection",
        "permlab_foregroundServiceMicrophone": "spustiť službu na popredí s typom microphone",
        "permlab_foregroundServicePhoneCall": "spustiť službu na popredí s typom phoneCall",
        "permlab_foregroundServiceRemoteMessaging": "spustiť službu na popredí s typom remoteMessaging",
        "permlab_foregroundServiceSpecialUse": "spustiť službu na popredí s typom specialUse",
        "permlab_foregroundServiceSystemExempted": "spustiť službu na popredí s typom systemExempted",
        "permlab_fullScreenIntent": "zobrazovanie upozornení ako aktivít na celej obrazovke v uzamknutom zariadení",
        "permlab_getAccounts": "nájsť účty na zariadení",
        "permlab_getPackageSize": "zistiť veľkosť ukladacieho priestoru aplikácie",
        "permlab_getTasks": "načítať spustené aplikácie",
        "permlab_handoverStatus": "príjem stavu prenosov Android Beam",
        "permlab_hideOverlayWindows": "skrytie prekrytí iných aplikácií",
        "permlab_highSamplingRateSensors": "prístup k dátam senzorom s vysokou vzorkovacou frekvenciou",
        "permlab_imagesWrite": "upravovať zbierku fotiek",
        "permlab_install_shortcut": "inštalovať odkazy",
        "permlab_invokeCarrierSetup": "vyvolanie aplikácie pre konfiguráciu poskytnutú operátorom",
        "permlab_killBackgroundProcesses": "zavrieť iné aplikácie",
        "permlab_manageFace": "spravovať hardvér odomknutia tvárou",
        "permlab_manageFingerprint": "spravovať hardvér na snímanie odtlačkov prstov",
        "permlab_manageNetworkPolicy": "spravovať pravidlá siete",
        "permlab_manageOngoingCalls": "Správa prebiehajúcich hovorov",
        "permlab_manageOwnCalls": "presmerovanie hovorov cez systém",
        "permlab_manageProfileAndDeviceOwners": "správa vlastníkov profilov a zariadení",
        "permlab_mediaLocation": "čítať polohy zo zbierky médií",
        "permlab_modifyAudioSettings": "meniť nastavenia zvuku",
        "permlab_modifyNetworkAccounting": "zmeniť kontrolu používania siete",
        "permlab_nearby_wifi_devices": "interakcia so zariadeniami Wi-Fi v okolí",
        "permlab_nfc": "ovládať technológiu NFC",
        "permlab_observeCompanionDevicePresence": "Sledovať prítomnosť sprievodného zariadenia",
        "permlab_persistentActivity": "nastaviť, aby bola aplikácia neustále spustená",
        "permlab_postNotification": "zobrazovať upozornenia",
        "permlab_preferredPaymentInfo": "Preferované informácie platobnej služby NFC",
        "permlab_processOutgoingCalls": "presmerovať odchádzajúce hovory",
        "permlab_queryAllPackages": "dopytovať všetky balíky",
        "permlab_readBasicPhoneState": "čítanie základného stavu a identity súvisiacich s telefonovaním",
        "permlab_readCalendar": "Čítanie udalostí kalendára a podrobností",
        "permlab_readCallLog": "čítať denník hovorov",
        "permlab_readCellBroadcasts": "čítať správy informačných služieb",
        "permlab_readContacts": "čítať kontakty",
        "permlab_readHistoryBookmarks": "čítať webové záložky a históriu",
        "permlab_readInstallSessions": "čítanie inštalačných relácií",
        "permlab_readMediaAudio": "čítať zvukové súbory zo zdieľaného priestoru",
        "permlab_readMediaImages": "čítať súbory obrázka zo zdieľaného priestoru",
        "permlab_readMediaVideo": "čítať videosúbory zo zdieľaného priestoru",
        "permlab_readNetworkUsageHistory": "čítať históriu používania siete",
        "permlab_readPhoneNumbers": "čítanie telefónnych čísel",
        "permlab_readPhoneState": "čítať stav a identitu telefónu",
        "permlab_readSms": "čítať textové správy (SMS alebo MMS)",
        "permlab_readSyncSettings": "čítať nastavenia synchronizácie",
        "permlab_readSyncStats": "čítať štatistické údaje o synchronizácii",
        "permlab_readVisualUserSelect": "čítanie obrázkových súborov a videosúborov vybraných používateľom v zdieľanom ukladacom priestore",
        "permlab_receiveBootCompleted": "spustiť pri štarte",
        "permlab_receiveMms": "prijímať textové správy (MMS)",
        "permlab_receiveSms": "prijímať textové správy (SMS)",
        "permlab_receiveWapPush": "prijímať textové správy (WAP)",
        "permlab_recordAudio": "nahrávať zvuk",
        "permlab_recordBackgroundAudio": "nahrávanie zvuku na pozadí",
        "permlab_register_call_provider": "registrácia nových pripojení telekomunikačnej siete",
        "permlab_register_sim_subscription": "registrácia nových pripojení telekomunikačnej siete SIM",
        "permlab_removeDrmCertificates": "odstránenie certifikátov DRM",
        "permlab_reorderTasks": "zmeniť poradie spustených aplikácií",
        "permlab_requestDeletePackages": "vyžiadať odstránenie balíkov",
        "permlab_requestIgnoreBatteryOptimizations": "požiadať o ignorovanie optimalizácií výdrže batérie",
        "permlab_requestInstallPackages": "odosielanie žiadostí o inštaláciu balíkov",
        "permlab_requestPasswordComplexity": "požadovať zložitosť zámky obrazovky",
        "permlab_route_media_output": "smerovanie výstupu médií",
        "permlab_runInBackground": "spustenie na pozadí",
        "permlab_schedule_exact_alarm": "Plánovať presne načasované akcie",
        "permlab_sdcardRead": "čítanie obsahu zdieľaného úložiska",
        "permlab_sdcardWrite": "upravovanie alebo odstraňovanie obsahu zdieľaného úložiska",
        "permlab_sendSms": "posielať a zobrazovať SMS",
        "permlab_setAlarm": "nastaviť budík",
        "permlab_setInputCalibration": "zmeniť kalibráciu vstupného zariadenia",
        "permlab_setTimeZone": "nastavenie časového pásma",
        "permlab_setWallpaper": "nastaviť tapetu",
        "permlab_setWallpaperHints": "upraviť veľkosť tapety",
        "permlab_sim_communication": "posielanie príkazov do SIM karty",
        "permlab_startForegroundServicesFromBackground": "Spúšťať služby na popredí z pozadia",
        "permlab_startReviewPermissionDecisions": "spustenie zobrazenia rozhodnutí o povolení",
        "permlab_startViewAppFeatures": "zobrazenie informácií o funkciách aplikácie",
        "permlab_startViewPermissionUsage": "spustenie používania povolenia na zobrazenie",
        "permlab_statusBar": "zakázanie alebo zmeny stavového riadka",
        "permlab_statusBarService": "vydávanie sa za stavový riadok",
        "permlab_subscribedFeedsRead": "čítať odoberané informačné kanály",
        "permlab_systemAlertWindow": "Táto aplikácia sa môže zobraziť nad ostatnými aplikáciami",
        "permlab_systemCamera": "Povoľte aplikácii alebo službe prístup k fotoaparátom systému na snímanie fotiek a videí",
        "permlab_transmitIr": "infračervený prenos",
        "permlab_turnScreenOn": "zapnúť obrazovku",
        "permlab_uninstall_shortcut": "odinštalovať odkazy",
        "permlab_updatePackagesWithoutUserAction": "aktualizovať aplikáciu bez akcie používateľa",
        "permlab_useBiometric": "používať biometrický hardvér",
        "permlab_useDataInBackground": "využívanie dát na pozadí",
        "permlab_useFaceAuthentication": "používať hardvér Odomknutia tvárou",
        "permlab_useFingerprint": "použiť hardvér na snímanie odtlačkov prstov",
        "permlab_use_exact_alarm": "Plánovať budíky alebo pripomenutia udalostí",
        "permlab_use_sip": "uskutočňovanie/príjem hovorov SIP",
        "permlab_uwb_ranging": "určovať relatívnu polohu medzi zariadeniami so ultraširokopásmovým pripojením v okolí",
        "permlab_vibrate": "ovládať vibrovanie",
        "permlab_videoWrite": "upravovať zbierku videí",
        "permlab_wakeLock": "zabránenie vypnutiu obrazovky auta",
        "permlab_writeCalendar": "pridať alebo upraviť udalosti v kalendári a odoslať e-mail hosťom bez vedomia vlastníka",
        "permlab_writeCallLog": "zapisovať do denníka hovorov",
        "permlab_writeContacts": "upraviť kontakty",
        "permlab_writeGeolocationPermissions": "zmeniť povolenia prehliadača poskytovať informácie o zemepisnej polohe",
        "permlab_writeHistoryBookmarks": "zapisovať webové záložky a históriu",
        "permlab_writeSettings": "upraviť nastavenia systému",
        "permlab_writeSyncSettings": "zapnúť alebo vypnúť synchronizáciu"
    },
    "sidebars": {
        "donate": {
            "bank_transfer_name": "Meno",
            "bitcoin_alt": "Prispieť cez Bitcoin",
            "credit_card": "Kreditná karta",
            "crypto": "Krypto",
            "currency": "Mena",
            "flattr_alt": "Prispieť cez Flattr",
            "heading": "Prispieť",
            "hellotux": "👕 Tričká 👕 od",
            "hellotux_alt": "HELLOTUX",
            "hellotux_donation": "F-Droid získa 3€ z každého predaného trička.",
            "liberapay_alt": "Prispieť cez Liberapay",
            "litecoin_alt": "Prispieť cez Litecoin",
            "more_options": "Viac Možností",
            "opencollective_alt": "Prispieť na Our Collective",
            "paypal": "PayPal",
            "paypal_alt": "Prispieť cez PayPal",
            "powered_by_donations": "F-Droid je poháňaný Vašimi príspevkami!",
            "via_bank_transfer": "Bankový Prevod"
        },
        "lang": {
            "change": "Zmeniť"
        },
        "last_updated": {
            "heading": "Naposledy aktualizované"
        },
        "latest_packages": {
            "heading": "Najnovšie Aplikácie"
        },
        "news": {
            "heading": "Novinky"
        },
        "search": {
            "heading": "Nájsť Aplikácie",
            "noscript": "Vyžaduje mať povolený JavaScript",
            "search": "Hľadať"
        }
    }
}
